compound,sales,volume
THIAMETHOXAM,"347,82","8341,37"
LAMBDA CYHALOTHRIN,"303,97","18994,07"
GLYPHOSATE,"268,89","49861,74"
CYPROCONAZOLE,"204,14","7534,35"
TEFLUTHRIN,"201,97","31355,56"
PROPICONAZOLE,"192,79","10754,17"
ATRAZINE,"185,97","34022,45"
PARAQUAT,"127,41","35874,42"
CHLORANTRANILIPROLE,"107,73","2000,33"
CHLOROTHALONIL,"67,47","6339,54"
DIQUAT,"59,48","8237,02"
EMAMECTIN BENZOATE,"35,77","518,20"
PYMETROZINE,"35,30","1008,85"
ABAMECTIN,"27,87","1266,24"
DIAFENTHIURON,"27,09","1226,60"
ISOPYRAZAM,"26,58","737,33"
FLUAZIFOP,"24,80","1508,91"
METRIBUZIN,"18,82","1302,16"
MANCOZEB,"18,15","3365,02"
LUFENURON,"17,32","751,95"
CYPERMETHRIN,"16,94","991,96"
PROFENOFOS,"14,37","987,19"
PIRIMICARB,"13,79","540,05"
EPOXICONAZOLE,"11,99","310,85"
DIURON,"9,23","1694,64"
FOLPET,"5,63","367,07"
FENOXYCARB,"5,00","61,59"
ACETOCHLOR,"3,44","420,58"
TERBUTRYN,"2,56","286,00"
CYFLUFENAMID,"2,32","81,51"
IMIDACLOPRID,"1,66","182,20"
DIAZINON,"1,57","227,06"
METHIDATHION,"1,22","38,67"
QUINALPHOS,"1,18","190,80"
PIRIMIPHOS-METHYL,"1,15","76,72"
IMAZALIL,"1,06","63,15"
BUTACHLOR,"0,93","296,57"
OXYFLUORFEN,"0,75","11,86"
BROMOXYNIL,"0,68","52,50"
FOSTHIAZATE,"0,68","15,50"
LINURON,"0,39","59,30"
PERMETHRIN,"0,25","33,93"
ZIRAM,"0,12","46,85"
PHOSMET,"0,09","8,93"
BIFENTHRIN,"0,05","0,20"
TRIFLURALIN,"0,05","8,03"
INDOXACARB,"0,01","0,45"
MILBEMECTIN,"0,01","0,89"