country,sales,salesPct,volume,volumePct
Brazil,"2478,83","19,57","262484,45","12,84"
Usa,"2323,43","18,34","407193,13","19,91"
China,"1778,96","14,04","472231,47","23,09"
Argentina,"873,62","6,90","108111,65","5,29"
India,"584,21","4,61","109168,75","5,34"
Japan,"528,77","4,17","33661,18","1,65"
France,"441,77","3,49","30381,60","1,49"
Australia,"377,85","2,98","79595,78","3,89"
Canada,"310,00","2,45","65258,58","3,19"
Germany,"270,05","2,13","11007,08","0,54"
Philippines,"187,44","1,48","8628,85","0,42"
Vietnam,"187,26","1,48","25122,43","1,23"
Italy,"169,00","1,33","27583,64","1,35"
Thailand,"167,78","1,32","134697,17","6,59"
South Korea,"162,35","1,28","29991,94","1,47"
Russia,"148,80","1,17","9682,32","0,47"
Bolivia,"127,87","1,01","16216,08","0,79"
Ukraine,"118,87","0,94","12109,56","0,59"
Paraguay,"108,15","0,85","21138,35","1,03"
Colombia,"91,89","0,73","19677,94","0,96"
Indonesia,"90,50","0,71","25730,66","1,26"
Uk,"86,66","0,68","9266,54","0,45"
Mexico,"68,37","0,54","4627,45","0,23"
Spain,"59,78","0,47","4032,17","0,20"
Hungary,"58,07","0,46","3700,15","0,18"
Uruguay,"56,12","0,44","14341,70","0,70"
Ghana,"55,92","0,44","5439,39","0,27"
Romania,"55,01","0,43","2101,80","0,10"
Guatemala,"54,12","0,43","3130,65","0,15"
Kenya,"52,71","0,42","6241,69","0,31"
Costa Rica,"47,42","0,37","13572,84","0,66"
Czech-Republic,"46,18","0,36","1332,19","0,07"
Pakistan,"45,71","0,36","4614,37","0,23"
Peru,"36,12","0,29","7845,09","0,38"
Poland,"34,28","0,27","1947,18","0,10"
Turkey,"34,23","0,27","21093,34","1,03"
Ivory-Coast,"30,87","0,24","3357,84","0,16"
Honduras,"30,68","0,24","2414,39","0,12"
Chile,"29,71","0,23","4224,77","0,21"
Netherlands,"27,28","0,22","1882,03","0,09"
South Africa,"25,19","0,20","3017,75","0,15"
Ethiopia,"21,95","0,17","1057,41","0,05"
Denmark,"21,73","0,17","1376,69","0,07"
Bulgaria,"20,84","0,16","783,13","0,04"
Malaysia,"18,99","0,15","3937,22","0,19"
Belgium,"18,84","0,15","809,23","0,04"
Nicaragua,"18,67","0,15","700,97","0,03"
Ecuador,"18,59","0,15","3405,11","0,17"
Portugal,"14,90","0,12","1859,48","0,09"
El Salvador,"12,45","0,10","855,00","0,04"
Dominican Republic,"10,46","0,08","533,95","0,03"
Panama,"9,01","0,07","641,70","0,03"
Slovakia,"7,49","0,06","232,88","0,01"
Sweden,"4,65","0,04","496,39","0,02"
Austria,"4,14","0,03","189,09","0,01"
Serbia,"2,47","0,02","236,29","0,01"
Croatia,"1,40","0,01","10,20","0,00"