compound,sales,volume
PYRACLOSTROBIN,"455,11","11569,05"
EPOXICONAZOLE,"280,74","10566,48"
FLUXAPYROXAD,"216,12","5060,85"
METCONAZOLE,"198,69","6976,59"
IMAZAMOX,"141,14","3917,69"
DIMETHENAMID,"134,64","5842,37"
FIPRONIL,"131,89","4268,87"
PENDIMETHALIN,"119,63","15935,63"
BOSCALID,"109,33","1898,91"
SAFLUFENACIL,"104,89","1107,98"
DICAMBA,"95,29","3024,54"
METAZACHLOR,"73,29","3136,20"
BENTAZONE,"61,99","4952,41"
DIFLUFENZOPYR,"60,57","789,86"
QUINCLORAC,"59,91","1481,64"
THIOPHANATE,"55,75","965,69"
IMAZETHAPYR,"50,07","3001,80"
FENPROPIMORPH,"50,03","1976,89"
TOPRAMEZONE,"48,97","872,08"
QUINMERAC,"48,48","1965,63"
IMAZAPYR,"46,63","1787,25"
PYROXASULFONE,"37,72","210,71"
METRAFENONE,"32,87","907,17"
DITHIANON,"32,73","1102,64"
DIMOXYSTROBIN,"30,12","559,69"
KRESOXIM-METHYL,"23,90","470,28"
METIRAM,"20,37","3373,96"
IMAZAPIC,"20,05","189,47"
MEPIQUAT,"19,81","936,29"
CHLORMEQUAT,"18,01","7054,20"
DIMETHOMORPH,"16,73","1356,07"
PHEROMONES,"15,99","42574,48"
FLUFENACET,"15,60","1137,87"
ALPHA CYPERMETHRIN,"14,30","1211,23"
FLUFENOXURON,"13,49","180,61"
PROCHLORAZ,"12,50","957,00"
DIMETHENAMID-P,"11,18","535,13"
TEFLUBENZURON,"10,30","421,42"
TRITOSULFURON,"9,76","265,97"
SULPHUR,"8,73","3496,88"
TERBUTHYLAZINE,"8,37","536,75"
CYCLOXYDIM,"7,84","432,86"
MANCOZEB,"7,59","786,46"
PROHEXADIONE,"7,51","355,03"
PICOLINAFEN,"6,01","530,34"
PROFOXYDIM,"5,72","93,73"
PYRIMETHANIL,"4,89","257,30"
AMETOCTRADIN,"4,87","426,68"
CHLORIDAZON,"4,65","223,19"
NICOSULFURON,"4,58","127,46"
CLOMAZON,"4,54","43,93"
PROTHIOCONAZOLE,"4,39","104,63"
CLETHODIM,"4,00","0,00"
ATRAZINE,"3,81","200,36"
ACIFLUORFEN,"3,38","184,78"
FLUPYRSULFURON,"3,17","3,29"
TRITICONAZOLE,"3,12","125,61"
SPINOSAD,"2,98","54,53"
ORYSASTROBIN,"2,96","107,29"
GLYPHOSATE,"2,83","730,62"
FLORASULAM,"2,55","12,97"
BROMOXYNIL,"2,35","65,37"
DICHLOROPROPENE,"1,97","92,31"
CHLORFENAPYR,"1,91","68,42"
THIOPHANATE METHYL,"1,88","52,08"
CYCLOSULFAMURON,"1,59","67,81"
IMAZAQUIN,"1,56","192,98"
MCPA,"1,55","120,70"
ETHEPHON,"1,54","157,32"
TEPRALOXYDIM,"1,44","148,68"
DIMETHOATE,"1,42","202,53"
TRIFLOXYSTROBIN,"1,35","21,09"
FLUQUINCONAZOLE,"1,28","56,13"
IPRODIONE,"1,21","36,80"
ABAMECTIN,"1,05","24,03"
FLUAZINAM,"1,02","44,00"
FOLPET,"0,99","54,57"
CARBENDAZIM,"0,91","97,44"
CLOTHIANIDIN,"0,91","33,24"
COPPER FUNGICIDE,"0,91","147,00"
CYMOXANIL,"0,85","68,99"
"2,4-D","0,80","130,94"
CHLORPYRIFOS,"0,78","79,19"
BENZOBICYCLON,"0,74","20,87"
METHYL OLEATE,"0,72","39,50"
POTASSIUM PHOSPHITE,"0,56","97,13"
TEMBOTRIONE,"0,56","19,57"
CAFENSTROLE,"0,53","4,55"
DAIMURON,"0,53","4,55"
PENTOXAZONE,"0,53","24,30"
CYPERMETHRIN,"0,52","137,32"
CODLEMONE,"0,51","1292,33"
TETRADEC-11-ENYL ACETATE,"0,51","1292,33"
SETHOXYDIM,"0,50","31,70"
TEBUCONAZOLE,"0,49","13,60"
RIMSULFURON,"0,48","1,71"
TEBUFENPYRAD,"0,47","7,38"
FLUCYTHRINATE,"0,46","12,48"
METHOXYFENOZIDE,"0,45","8,70"
PROPANIL,"0,44","80,46"
FLUROXYPYR,"0,42","8,42"
"2,4-D AMINE","0,38","108,00"
AZIMSULFURON,"0,37","0,28"
ISOPROTHIOLANE,"0,32","16,08"
IMAZALIL,"0,32","85,44"
CLORFENAPYR,"0,31","0,00"
DODINE,"0,30","12,88"
AUXINS,"0,30","65,71"
CYTOKININS,"0,30","65,71"
MESOTRIONE,"0,29","6,33"
PRETILACHLOR,"0,27","31,01"
CHLOROTHALONIL,"0,26","21,96"
ISOXAFLUTOLE,"0,24","2,59"
CARBOSULFAN,"0,24","20,00"
CAPTAN,"0,19","30,98"
MECOPROP,"0,18","4,83"
MONOCROTOPHOS,"0,18","23,37"
METAFLUMIZONE,"0,17","1,19"
PROPETAMPHOS,"0,17","6,28"
DODEMORPH,"0,16","5,60"
PYRIDABEN,"0,16","3,50"
AMINOPYRALID,"0,11","2,39"
CLOPYRALID,"0,11","2,39"
PICLORAM,"0,11","2,39"
FLUTRIAFOL,"0,10","8,35"
FLUMETRALIN,"0,10","12,42"
DIFLUFENICAN,"0,09","5,71"
IMAZAMETHABENZ,"0,09","4,32"
FENBUTATIN OXIDE,"0,07","4,34"
ZETA-CYPERMETHRIN,"0,07","3,71"
TRIFLUMIZOLE,"0,06","5,31"
AZOXYSTROBIN,"0,06","2,49"
IOXINIL,"0,05","5,04"
CHLORMEQUAT CHLORIDE,"0,04","1,85"
CYANAZINE,"0,04","0,67"
TRIFLUMURON,"0,03","0,89"
IPROBENFOS,"0,02","9,65"
PROPICONAZOLE,"0,02","1,13"
ACEPHATE,"0,02","0,97"
GIBBERELLIC ACID,"0,01","0,25"