compound,sales,volume
PROTHIOCONAZOLE,"524,24","14003,38"
TRIFLOXYSTROBIN,"323,03","8231,11"
TEBUCONAZOLE,"308,06","36602,08"
GLUFOSINATE,"162,54","27073,86"
IMIDACLOPRID,"158,41","9077,46"
IODOSULFURON,"155,05","2755,53"
TEMBOTRIONE,"139,89","2495,55"
FLUFENACET,"139,58","2486,48"
ISOXAFLUTOLE,"129,32","2127,50"
MESOSULFURON,"119,36","2197,85"
DIFLUFENICAN,"118,92","2667,14"
THIENCARBAZONE METHYL,"105,35","1980,93"
FENOXAPROP,"79,41","5545,95"
CYPROCONAZOLE,"79,12","1526,23"
BIXAFEN,"74,25","1704,93"
METRIBUZIN,"63,14","1805,98"
FLUBENDIAMIDE,"62,69","558,69"
SPIROXAMINE,"62,26","2365,74"
DELTAMETHRIN,"61,99","7860,63"
BROMOXYNIL,"61,31","3851,24"
PYROXASULFONE,"60,49","315,58"
CLETHODIM,"57,98","1784,46"
THIACLOPRID,"53,29","1431,83"
PYRASULFOTOLE,"49,50","2666,03"
FORAMSULFURON,"48,84","1222,25"
FLURTAMONE,"36,96","648,70"
CYFLUTHRIN,"36,62","3453,87"
FLUOXASTROBIN,"34,89","878,27"
FOSETYL,"34,02","2985,61"
BISPIRYBAC-SODIUM,"33,29","381,30"
PHENMEDIPHAM,"32,06","1909,76"
FLUOPICOLIDE,"32,04","1890,09"
PROPINEB,"30,56","3824,36"
DESMEDIPHAM,"29,60","1748,32"
TRIFLUMURON,"28,21","589,43"
FLUOPYRAM,"27,32","455,67"
MCPA,"26,81","5256,18"
PROPAMOCARB,"26,00","1380,38"
OXADIAZON,"25,93","2614,08"
ETHIPROLE,"24,78","1654,44"
ETHOFUMESATE,"24,17","1305,98"
FIPRONIL,"23,28","6397,10"
TRIADIMENOL,"20,42","1020,19"
SPIROTETRAMAT,"19,78","398,46"
ETHEPHON,"17,54","767,04"
SPIROMESIFEN,"17,28","319,33"
CYPROSULFAMIDE,"14,88","517,68"
FENHEXAMID,"14,31","274,22"
ACLONIFEN,"14,30","638,40"
GLYPHOSATE,"13,95","143,25"
ISOXADIFEN,"13,40","453,04"
FENOXAPROP-P-ETHYL,"13,35","752,14"
TERBUTHYLAZINE,"13,19","715,70"
CLOTHIANIDIN,"12,68","98,66"
FOLPET,"12,65","1182,31"
PENCYCURON,"12,30","410,50"
THIODICARB,"12,22","364,75"
METIRAM,"11,88","977,40"
AMIDOSULFURON,"11,43","167,45"
PROPOXYCARBAZONE,"9,90","68,39"
ISOPROTURON,"9,61","678,56"
"2,4-D","9,13","3244,90"
DICAMBA,"9,11","591,06"
ISOTIANIL,"8,82","534,04"
NICLOSAMIDE,"7,49","145,90"
MEFENPYR,"7,43","146,73"
THENCARBAZONE-METHYL,"7,31","328,17"
THIENCARBAZONE,"7,30","94,18"
PROCHLORAZ,"7,24","919,36"
SPIRODICLOFEN,"7,15","78,14"
CYMOXANIL,"6,97","608,77"
FENTRAZAMIDE,"6,80","297,02"
BETA CYFLUTHRIN,"6,72","183,56"
ASULAM,"6,28","295,92"
TEFURYLTRIONE,"6,15","168,90"
IODOSULFURON-METHYL,"6,14","21,42"
LENACIL,"6,07","351,53"
PROPICONAZOLE,"6,06","263,34"
DICLOFOP,"5,45","408,82"
PYRIMETHANIL,"4,74","151,98"
TRIFLURALIN,"4,49","290,34"
IPRODIONE,"4,43","156,99"
CARBARYL,"4,25","208,82"
MEFENACET,"4,04","302,55"
METHIOCARB,"3,76","259,34"
FENAMIDONE,"3,73","179,01"
FLUQUINCONAZOLE,"3,65","71,30"
ANILOFOS,"3,53","653,48"
PETHOXAMID,"3,53","176,19"
IOXINIL,"3,45","102,02"
SULCOTRIONE,"3,28","117,02"
IPROVALICARB,"3,26","265,80"
SPINOSAD,"3,25","127,42"
INDAZIFLAM,"3,21","12,75"
COPPER FUNGICIDE,"3,15","508,38"
CARBOFURAN,"3,01","3699,05"
METSULFURON,"2,88","39,12"
FENOBUCARB,"2,82","600,00"
ABAMECTIN,"2,82","79,39"
CARBENDAZIM,"2,80","280,49"
METOMINOSTROBIN,"2,79","187,39"
ISOXADIFEN-ETHYL,"2,70","123,32"
BACILLUS SUBTILIS,"2,70","654,23"
BENAZOLIN,"2,52","199,37"
SILAFLUOFEN,"2,39","241,41"
ACEPHATE,"2,33","266,54"
FOSETYL ALUMINIUM,"2,31","110,63"
METHOXYFENOZIDE,"2,26","36,84"
BENSULFURON,"2,25","104,65"
LACTOFEN,"2,09","187,50"
OXADIARGYL,"2,08","63,07"
BROMOBUTIDE,"2,07","95,30"
CHLORANTRANILIPROLE,"2,02","68,80"
MANCOZEB,"1,94","173,28"
CHLOROTOLURON,"1,76","185,33"
THIOPHANATE,"1,62","435,46"
FLUDIOXONIL,"1,59","106,05"
PROTHIOFOS,"1,56","31,88"
DAIMURON,"1,54","69,96"
BENZOFENAP,"1,50","54,70"
METHABENZTHIAZURON,"1,46","43,37"
TRIADIMEFON,"1,43","127,47"
PRETILACHLOR,"1,43","51,12"
FUBERIDAZOLE,"1,40","40,81"
IMAZALIL,"1,40","40,81"
EDIFENPHOS,"1,39","26,37"
PENFLUFEN,"1,38","45,65"
IODOSULFURON-METHYL-SODIUM,"1,24","33,22"
CHLORMEQUAT,"1,24","130,44"
THIDIAZURON,"1,21","5,05"
HYMEXAZOL,"1,15","58,98"
ISOPROTHIOLANE,"1,11","177,88"
ETHOXYSULFURON,"1,08","10,85"
TRICYCLAZOLE,"1,07","64,51"
CAPTAN,"1,01","46,12"
METOSULAM,"0,99","11,51"
PARAFFIN OIL,"0,91","712,80"
TRALOMETHRIN,"0,89","9,68"
PROSULFOCARB,"0,88","133,97"
METALAXYL,"0,87","42,37"
NAPROPAMIDE,"0,85","47,96"
CYPERMETHRIN,"0,81","97,63"
QUIZALOFOP,"0,81","57,37"
ETHOPROPHOS,"0,71","419,35"
PYRIMISULFAN,"0,69","32,02"
HYDRAMETHYLNON,"0,68","0,31"
MCPB,"0,64","119,73"
SIMETRYN,"0,64","119,73"
THIRAM,"0,55","79,20"
BENFURESATE,"0,54","100,29"
SULFENTRAZONE,"0,52","23,67"
TRIBENURON,"0,48","3,43"
THIFENSULFURON-METHYL,"0,48","3,23"
ATRAZINE,"0,45","60,13"
BETA-CYPERMETHRIN,"0,45","9,52"
PROFENOFOS,"0,43","36,60"
TRIFOXYSTROBIN,"0,36","3,38"
TIADINIL,"0,36","56,14"
CYCLANILIDE,"0,35","0,00"
PENDIMETHALIN,"0,34","80,19"
BENZOBICYCLON,"0,34","16,48"
DISULFOTON,"0,30","202,95"
FENTHION,"0,30","36,53"
BITERTANOL,"0,26","12,41"
BENTHIAVALICARB,"0,25","1,04"
FLORASULAM,"0,22","8,16"
TRITOSULFURON,"0,22","8,16"
PROPAMOCARB HCL,"0,22","5,05"
TRIAFAMONE,"0,22","9,51"
BUPROFEZIN,"0,22","21,53"
TRICHLORFON,"0,22","34,39"
MEFENPYR-DIETHYL,"0,21","2,79"
METSULFURON METHYL,"0,21","2,79"
SULPHUR,"0,19","130,69"
TEBUPIRIMFOS,"0,19","53,53"
LINURON,"0,19","7,91"
SULPHATE,"0,18","30,00"
IMAZOSULFURON,"0,17","8,14"
QUIZALOFOP-P,"0,17","9,04"
CHLOROTHALONIL,"0,17","13,81"
AMETRYN,"0,14","38,15"
CHLORPYRIFOS,"0,13","24,38"
TRIAZOPHOS,"0,13","42,70"
PYRAZOSULFURON,"0,12","47,17"
TETRACONAZOLE,"0,11","2,86"
KRESOXIM-METHYL,"0,11","3,23"
PROPANIL,"0,11","11,63"
OXINE-COPPER,"0,10","2,63"
S-METALOCHLOR,"0,07","9,31"
FENARIMOL,"0,06","0,60"
COPPER OXYCHLORIDE,"0,05","1,96"
MESOTRIONE,"0,04","16,21"
ALDICARB,"0,04","8,68"
ALPHA CYPERMETHRIN,"0,04","9,74"
METHOMYL,"0,04","7,50"
BACILLUS THURINGIENSIS,"0,04","4,68"
PHENTHOATE,"0,03","3,88"
METHAMIDOPHOS,"0,03","8,73"
AZOXYSTROBIN,"0,02","0,98"
TSIPROSULFAMID,"0,02","0,01"
BACILLUS PUMILUS,"0,02","0,07"
FENITROTHION,"0,02","1,34"
CARPROPAMID,"0,00","0,13"
ACRINATHRIN,"0,00","0,01"
AZIMSULFURON,"0,00","0,37"