substance,isHhp,manufacturer,sale,salePct,volume,volumePct
GLYPHOSATE,true,Monsanto,"285,69","39,34","35703,37","39,64"
GLYPHOSATE,true,Syngenta,"134,08","18,46","18318,09","20,34"
GLYPHOSATE,true,Albaugh,"97,42","13,42","11740,80","13,04"
GLYPHOSATE,true,Adama,"67,74","9,33","8163,84","9,06"
GLYPHOSATE,true,Nufarm,"61,38","8,45","7566,91","8,40"
GLYPHOSATE,true,Sipcam Nichino,"44,49","6,13","4077,60","4,53"
GLYPHOSATE,true,Dupont,"29,41","4,05","3544,61","3,94"
GLYPHOSATE,true,Atar Do Brasil,"3,39","0,47","541,44","0,60"
GLYPHOSATE,true,Cropchem,"2,53","0,35","403,20","0,45"
AZOXYSTROBIN,false,Syngenta,"293,49","96,79","2091,95","93,27"
AZOXYSTROBIN,false,FMC,"8,69","2,87","134,90","6,01"
AZOXYSTROBIN,false,Helm,"0,67","0,22","9,99","0,45"
AZOXYSTROBIN,false,Alta,"0,29","0,09","4,97","0,22"
AZOXYSTROBIN,false,BASF,"0,10","0,03","1,00","0,04"
THIAMETHOXAM,true,Syngenta,"234,13","100,00","1470,76","100,00"
CHLORANTRANILIPROLE,true,Dupont,"126,59","63,92","214,23","59,13"
CHLORANTRANILIPROLE,true,Syngenta,"71,46","36,08","148,04","40,87"
CYPROCONAZOLE,true,Dupont,"65,89","38,53","657,80","35,71"
CYPROCONAZOLE,true,Bayer Crop Science,"63,68","37,24","762,80","41,41"
CYPROCONAZOLE,true,Syngenta,"41,44","24,23","421,42","22,88"
PICOXYSTROBIN,false,Dupont,"166,14","99,95","1653,87","99,90"
PICOXYSTROBIN,false,Adama,"0,09","0,05","1,64","0,10"
TRIFLOXYSTROBIN,false,Bayer Crop Science,"163,36","99,80","1775,87","99,85"
TRIFLOXYSTROBIN,false,BASF,"0,33","0,20","2,72","0,15"
PROTHIOCONAZOLE,false,Bayer Crop Science,"162,58","100,00","1654,51","100,00"
FLUMIOXAZIN,true,Sumitomo Chemical,"118,00","99,19","499,75","98,60"
FLUMIOXAZIN,true,Ihara,"0,96","0,81","7,09","1,40"
LAMBDA CYHALOTHRIN,true,Syngenta,"117,48","100,00","817,25","100,00"
FIPRONIL,true,BASF,"113,30","100,00","601,79","100,00"
BIFENTHRIN,true,Adama,"50,68","52,90","616,70","67,34"
BIFENTHRIN,true,FMC,"37,41","39,05","231,55","25,29"
BIFENTHRIN,true,UPL,"7,71","8,05","67,50","7,37"
BENZOVINDIFLUPYR,false,Syngenta,"93,16","99,24","511,73","99,09"
BENZOVINDIFLUPYR,false,Dupont,"0,71","0,76","4,68","0,91"
IMIDACLOPRID,true,Bayer Crop Science,"45,75","52,73","977,17","59,97"
IMIDACLOPRID,true,Adama,"23,55","27,14","241,28","14,81"
IMIDACLOPRID,true,UPL,"6,24","7,19","192,54","11,82"
IMIDACLOPRID,true,Nufarm,"5,64","6,51","171,05","10,50"
IMIDACLOPRID,true,FMC,"5,58","6,43","47,48","2,91"
TEMBOTRIONE,false,Bayer Crop Science,"81,19","100,00","351,04","100,00"
ATRAZINE,true,Syngenta,"47,97","61,72","5557,23","57,91"
ATRAZINE,true,Nordox,"14,73","18,95","1984,85","20,68"
ATRAZINE,true,Albaugh,"10,46","13,45","1420,00","14,80"
ATRAZINE,true,Sipcam UPL,"4,57","5,88","634,02","6,61"
PYRACLOSTROBIN,false,BASF,"77,14","99,24","710,24","99,04"
PYRACLOSTROBIN,false,Syngenta,"0,59","0,76","6,89","0,96"
CLOMAZON,false,FMC,"77,67","100,00","3101,94","100,00"
INDOXACARB,true,Dupont,"71,64","100,00","303,05","100,00"
ACEPHATE,true,Arysta Lifescience,"51,58","78,03","5611,07","80,10"
ACEPHATE,true,Nordox,"7,77","11,76","814,20","11,62"
ACEPHATE,true,UPL,"6,75","10,21","579,96","8,28"
THIOPHANATE,false,BASF,"57,42","95,27","290,66","73,93"
THIOPHANATE,false,Ihara,"2,85","4,73","102,52","26,07"
DICLOSULAM,false,Dow Agrosciences,"52,77","100,00","196,53","100,00"
PARAQUAT,true,Syngenta,"49,83","94,96","2422,00","95,00"
PARAQUAT,true,Helm,"2,65","5,04","127,50","5,00"
SPINOSAD,true,Dow Agrosciences,"50,67","100,00","140,80","100,00"
PYRIPROXYFEN,false,Ihara,"47,49","100,00","81,40","100,00"
DIURON,true,Adama,"23,11","49,05","1673,89","48,63"
DIURON,true,Dupont,"18,82","39,94","1463,02","42,51"
DIURON,true,Syngenta,"5,19","11,02","305,00","8,86"
ACETAMIPRID,false,UPL,"27,78","60,63","176,16","48,50"
ACETAMIPRID,false,Nufarm,"13,48","29,43","162,66","44,78"
ACETAMIPRID,false,Ccab,"4,07","8,89","20,58","5,67"
ACETAMIPRID,false,Ihara,"0,48","1,06","3,83","1,05"
CHLORIMURON,false,UPL,"30,38","67,70","211,89","72,10"
CHLORIMURON,false,Dupont,"14,50","32,30","81,98","27,90"
CLETHODIM,false,Arysta Lifescience,"30,06","75,77","328,83","74,15"
CLETHODIM,false,Adama,"7,52","18,94","86,02","19,40"
CLETHODIM,false,Nordox,"2,10","5,29","28,61","6,45"
METHOMYL,true,UPL,"29,34","74,41","1477,93","93,42"
METHOMYL,true,Dupont,"9,43","23,92","76,92","4,86"
METHOMYL,true,Adama,"0,66","1,67","27,21","1,72"
SULFENTRAZONE,false,FMC,"35,94","100,00","869,82","100,00"
SAFLUFENACIL,false,BASF,"31,58","100,00","187,22","100,00"
FENOXAPROP,false,Bayer Crop Science,"31,13","100,00","196,52","100,00"
TRIFLUMURON,false,Bayer Crop Science,"25,03","85,65","252,62","85,65"
TRIFLUMURON,false,Rotam,"4,20","14,35","42,34","14,35"
TEBUTHIURON,false,Adama,"16,56","59,24","1096,00","54,37"
TEBUTHIURON,false,Volcano Agroscience,"11,39","40,76","919,97","45,63"
DIQUAT,true,Syngenta,"25,92","100,00","1112,00","100,00"
TEBUCONAZOLE,false,Bayer Crop Science,"16,00","64,58","217,92","55,69"
TEBUCONAZOLE,false,FMC,"5,22","21,06","114,66","29,30"
TEBUCONAZOLE,false,Adama,"1,56","6,31","33,34","8,52"
TEBUCONAZOLE,false,Helm,"1,34","5,41","19,99","5,11"
TEBUCONAZOLE,false,BASF,"0,65","2,63","5,44","1,39"
CARBOSULFAN,true,FMC,"20,96","100,00","278,52","100,00"
MANCOZEB,true,UPL,"14,60","69,76","2167,00","69,94"
MANCOZEB,true,Dow Agrosciences,"5,43","25,96","855,36","27,61"
MANCOZEB,true,Dupont,"0,90","4,28","76,19","2,46"
MESOTRIONE,false,Syngenta,"19,24","100,00","160,94","100,00"
HEXAZINONE,false,Consagro,"7,05","40,54","189,03","19,62"
HEXAZINONE,false,Dupont,"5,31","30,51","412,46","42,82"
HEXAZINONE,false,Adama,"5,03","28,95","361,82","37,56"
CHLORPYRIFOS,true,Dow Agrosciences,"13,93","82,38","1110,76","82,57"
CHLORPYRIFOS,true,Nufarm,"2,98","17,62","234,52","17,43"
ETHIPROLE,false,Bayer Crop Science,"15,98","100,00","192,68","100,00"
HALOXYFOP,false,Dupont,"14,60","100,00","120,09","100,00"
FOMESAFEN,false,Syngenta,"14,16","100,00","350,00","100,00"
FLUDIOXONIL,false,Syngenta,"13,72","100,00","16,43","100,00"
FLUXAPYROXAD,false,BASF,"12,65","97,72","136,87","97,54"
FLUXAPYROXAD,false,Syngenta,"0,29","2,28","3,45","2,46"
METHOXYFENOZIDE,false,Dow Agrosciences,"11,95","100,00","137,60","100,00"
EPOXICONAZOLE,true,BASF,"11,66","100,00","92,09","100,00"
HALOSULFURON,false,Arysta Lifescience,"10,69","100,00","30,43","100,00"
FLUAZIFOP,true,Ihara,"10,46","100,00","151,81","100,00"
CARBENDAZIM,true,FMC,"10,44","100,00","229,32","100,00"
DIAFENTHIURON,true,Syngenta,"10,17","100,00","247,92","100,00"
FLUBENDIAMIDE,true,Bayer Crop Science,"10,11","100,00","54,04","100,00"
FLUTRIAFOL,false,FMC,"8,69","96,54","134,90","96,28"
FLUTRIAFOL,false,Alta,"0,29","3,20","4,97","3,55"
FLUTRIAFOL,false,BASF,"0,02","0,27","0,25","0,18"
TRICYCLAZOLE,false,Dow Agrosciences,"8,84","100,00","165,38","100,00"
"2,4-D",false,Various,"5,63","67,01","1068,73","97,01"
"2,4-D",false,Dow Agrosciences,"2,77","32,99","32,89","2,99"
CLORANSULAM-METHYL,false,Dow Agrosciences,"8,19","100,00","30,57","100,00"
IMAZAPYR,false,BASF,"7,96","100,00","37,45","100,00"
CYHALOFOP-BUTYL,false,Dow Agrosciences,"7,91","100,00","79,20","100,00"
CLOTHIANIDIN,true,Bayer Crop Science,"7,72","100,00","38,80","100,00"
NICOSULFURON,false,Adama,"5,48","77,51","13,46","71,45"
NICOSULFURON,false,Nufarm,"1,59","22,49","5,38","28,55"
CLODINAFOP,false,Syngenta,"7,03","100,00","24,86","100,00"
KRESOXIM-METHYL,true,FMC,"6,52","93,49","143,32","95,09"
KRESOXIM-METHYL,true,BASF,"0,45","6,51","7,41","4,91"
TEFLUBENZURON,false,BASF,"6,97","100,00","44,44","100,00"
BOSCALID,false,BASF,"6,50","100,00","96,96","100,00"
PROPANIL,false,UPL,"3,25","50,12","334,40","52,60"
PROPANIL,false,Adama,"3,23","49,88","301,32","47,40"
METCONAZOLE,false,BASF,"6,41","100,00","66,80","100,00"
DIMOXYSTROBIN,true,BASF,"6,29","100,00","95,32","100,00"
PROPICONAZOLE,true,Syngenta,"6,11","100,00","114,89","100,00"
METALAXYL,false,Syngenta,"5,88","100,00","7,01","100,00"
THIABENDAZOLE,false,Syngenta,"5,83","100,00","6,88","100,00"
METSULFURON,false,Rotam,"3,77","65,90","8,96","34,21"
METSULFURON,false,Dupont,"1,95","34,10","17,24","65,79"
CHLOROTHALONIL,true,Syngenta,"4,81","84,47","459,32","91,35"
CHLOROTHALONIL,true,Ihara,"0,89","15,53","43,50","8,65"
CYFLUTHRIN,false,Bayer Crop Science,"4,73","100,00","70,60","100,00"
GLUFOSINATE,true,Bayer Crop Science,"4,49","100,00","153,60","100,00"
QUIZALOFOP,false,Platform,"2,97","66,44","13,88","66,08"
QUIZALOFOP,false,Arysta Lifescience,"1,50","33,56","7,13","33,92"
QUINCLORAC,false,BASF,"4,39","100,00","74,85","100,00"
AMICARBAZONE,false,Arysta Lifescience,"4,17","100,00","108,78","100,00"
CYMOXANIL,false,Dupont,"4,03","97,16","70,18","87,84"
CYMOXANIL,false,Dow Agrosciences,"0,12","2,84","9,72","12,16"
MSMA,false,Arysta Lifescience,"3,89","100,00","820,76","100,00"
ISOXAFLUTOLE,true,Bayer Crop Science,"3,15","100,00","14,94","100,00"
SIMAZINE,false,Syngenta,"3,12","100,00","431,80","100,00"
SPIROMESIFEN,false,Bayer Crop Science,"3,09","100,00","24,12","100,00"
THIODICARB,true,Bayer Crop Science,"2,98","100,00","38,15","100,00"
FAMOXADONE,false,Dupont,"2,94","100,00","45,49","100,00"
PENDIMETHALIN,true,BASF,"2,88","100,00","169,12","100,00"
BISPIRYBAC-SODIUM,false,Kumiai Chemical,"2,65","100,00","6,73","100,00"
CAPTAN,false,Adama,"2,51","100,00","185,76","100,00"
IMAZAPIC,false,BASF,"2,46","100,00","11,60","100,00"
TRICLOPYR,false,Dow Agrosciences,"2,36","97,01","130,75","96,69"
TRICLOPYR,false,UPL,"0,07","2,99","4,48","3,31"
ABAMECTIN,true,Syngenta,"2,29","100,00","6,93","100,00"
DIFENOCONAZOLE,false,Syngenta,"2,22","100,00","14,76","100,00"
METIRAM,true,BASF,"2,22","100,00","187,91","100,00"
LACTOFEN,false,Bayer Crop Science,"2,09","100,00","45,00","100,00"
IMAZETHAPYR,false,UPL,"1,90","100,00","28,88","100,00"
KASUGAMYCIN,false,Arysta Lifescience,"1,69","100,00","4,38","100,00"
LUFENURON,true,Syngenta,"1,65","100,00","9,44","100,00"
PYRIMETHANIL,false,BASF,"1,37","100,00","37,68","100,00"
PROFENOFOS,true,Syngenta,"1,34","100,00","48,33","100,00"
FLUAZINAM,false,BASF,"1,02","78,81","22,00","79,46"
FLUAZINAM,false,Ishihara,"0,28","21,19","5,69","20,54"
PROPINEB,true,Bayer Crop Science,"1,24","100,00","181,65","100,00"
PROPAMOCARB,false,Bayer Crop Science,"1,24","100,00","74,29","100,00"
PYRITHIOBAC,false,Harabras,"1,06","100,00","2,63","100,00"
PYROXSULAM,false,Dow Agrosciences,"1,05","100,00","0,69","100,00"
ESFENVALERATE,true,Ihara,"1,05","100,00","2,01","100,00"
BENTAZONE,false,BASF,"1,04","100,00","43,26","100,00"
ETHOXYSULFURON,false,Bayer Crop Science,"0,89","100,00","4,37","100,00"
PYRAZOSULFURON,false,Nissan Chemical,"0,84","100,00","0,80","100,00"
IPRODIONE,true,FMC,"0,83","100,00","23,10","100,00"
METRIBUZIN,true,Bayer Crop Science,"0,77","100,00","5,46","100,00"
CARFENTRAZONE,false,FMC,"0,75","100,00","3,40","100,00"
IODOSULFURON,false,Bayer Crop Science,"0,71","100,00","0,14","100,00"
ZETA-CYPERMETHRIN,true,FMC,"0,60","100,00","5,24","100,00"
PROFOXYDIM,true,BASF,"0,60","100,00","6,80","100,00"
PENOXULAM,false,Dow Agrosciences,"0,54","100,00","5,42","100,00"
SULFOMETURON-METHYL,false,Dupont,"0,45","100,00","35,18","100,00"
OXYFLUORFEN,true,Dow Agrosciences,"0,45","100,00","5,90","100,00"
COPPER FUNGICIDE,false,Atar Do Brasil,"0,36","100,00","92,40","100,00"
DODINE,false,BASF,"0,30","100,00","5,80","100,00"
ETOFENPROX,false,Ihara,"0,29","100,00","3,42","100,00"
FENAMIDONE,false,Bayer Crop Science,"0,24","100,00","1,43","100,00"
CYPERMETHRIN,true,Ihara,"0,22","100,00","3,87","100,00"
FLUOPICOLIDE,false,Bayer Crop Science,"0,12","100,00","7,43","100,00"
BACILLUS SUBTILIS,false,Bayer Crop Science,"0,11","100,00","0,12","100,00"
TRIADIMENOL,true,Bayer Crop Science,"0,11","100,00","1,85","100,00"
NOVALURON,false,Adama,"0,05","100,00","2,16","100,00"
IMAZAMOX,false,BASF,"0,02","100,00","0,88","100,00"