compound,sales,volume
CHLORPYRIFOS,"213,72","48190,97"
PENOXSULAM,"160,50","4973,15"
SPINOSAD,"121,35","1237,58"
CLOPYRALID,"118,24","7842,88"
PYROXSULAM,"117,95","2092,67"
DICLOSULAM,"106,27","534,50"
FLUROXYPYR,"97,20","6598,14"
CYHALOFOP-BUTYL,"96,19","3429,12"
FLORASULAM,"90,77","2167,82"
HALOXYFOP,"77,62","5478,43"
MANCOZEB,"61,28","10009,63"
CLORANSULAM-METHYL,"57,47","422,57"
GLYPHOSATE,"53,12","15834,84"
METHOXYFENOZIDE,"51,03","1482,17"
ACETOCHLOR,"48,90","6745,95"
PROPYZAMIDE,"43,05","2376,35"
"2,4-D","38,90","7892,33"
AMINOPYRALID,"34,52","744,71"
TRICYCLAZOLE,"26,76","1327,90"
SULFOXAFLOR,"21,20","287,68"
SULFENTRAZONE,"20,94","285,44"
MESOTRIONE,"20,36","2510,96"
FLUMETSULAM,"19,31","1658,39"
PICLORAM,"18,94","763,20"
TRIFLURALIN,"17,09","3364,73"
OXYFLUORFEN,"16,78","692,88"
MYCLOBUTANIL,"13,37","430,21"
SPINETORAM,"12,48","64,05"
LAMBDA-CYHALOTHRIN,"11,75","1160,09"
ATRAZINE,"11,63","2006,39"
TRICLOPYR,"9,39","1093,12"
CYPERMETHRIN,"8,18","450,04"
BENTAZONE,"7,35","243,98"
FENBUCONAZOLE,"6,26","313,87"
AZOXYSTROBIN,"5,94","115,34"
CYPROCONAZOLE,"5,84","108,94"
CHLOPYRALID,"5,51","55,58"
QUINOXYFEN,"4,74","196,91"
MCPA,"4,45","364,68"
HALAUXIFEN,"4,31","54,45"
GAMMA-CYHALOTHRIN,"4,12","233,94"
ISOXABEN,"3,59","119,05"
DIFLUFENICAN,"3,41","121,71"
MEPTYLDINOCAP,"3,32","185,38"
FLUROXYPYR-MEPTYL,"2,80","134,46"
FLUPYRSULFURON,"2,66","4,50"
NICOSULFURON,"2,03","7,71"
"2,4-D DIMETHYLAMINE","1,79","1310,74"
CLOMAZONE,"1,43","32,83"
CYMOXANIL,"1,30","234,98"
PROPICONAZOLE,"1,11","102,72"
PARAQUAT,"0,96","40,83"
FLUMIOXAZIN,"0,91","5,37"
COPPER FUNGICIDES,"0,70","151,80"
FIPRONIL,"0,66","27,96"
METSULFURON,"0,61","14,43"
METIRAM,"0,59","75,00"
PENDIMETHALIN,"0,58","171,05"
THIACLOPRID,"0,56","8,79"
THIFENSULFURON,"0,50","11,85"
TRIBENURON,"0,50","11,85"
BOSCALID,"0,49","7,84"
CLOQUINTOCET,"0,46","5,15"
TEBUFENOZIDE,"0,46","12,14"
MANEB,"0,45","20,05"
CLOQUINTOCET-METHYL,"0,43","4,72"
PIROXSULAM,"0,43","4,72"
EPOXICONAZOLE,"0,43","9,62"
METRAFENONE,"0,43","9,62"
IMIDACLOPRID,"0,41","36,73"
TERBUTHYLAZINE,"0,39","58,44"
AMETOCTRADIN,"0,38","46,88"
CLOQUINTOCET-MEXYL,"0,37","6,76"
DINOCAP,"0,37","27,34"
TEBUCONAZOLE,"0,34","62,72"
ETHALFLURALIN,"0,29","34,41"
FORAMSULFURON,"0,29","10,26"
TEBUTHIURON,"0,27","12,29"
METALAXYL,"0,26","1,46"
CARBENDAZIM,"0,25","36,98"
CYFLUTHRIN,"0,22","6,62"
OXYFLOURFEN,"0,22","1,58"
DIMETHOMORPH,"0,21","28,13"
QUIZALOFOP,"0,21","18,00"
CYHALOFOP,"0,21","7,69"
CLODINAFOP,"0,21","3,00"
VALIFENALATE,"0,21","20,86"
AMINOPYRALID 30%,"0,19","16,45"
FLORASULEM 15%,"0,19","16,45"
ORYZALIN,"0,19","9,45"
IMAZETHAPYR,"0,19","20,20"
FATTY ACID,"0,18","26,00"
CHLORPYRIFOS-ETHYL,"0,17","2,22"
PENOXULAM,"0,15","3,13"
CYHALOPFOP-BUTYL,"0,15","3,13"
THIFLUZAMIDE,"0,14","4,94"
C. OXYCHLORIDE,"0,12","12,56"
BENFLURALIN,"0,10","74,38"
DICOFOL,"0,10","20,87"
CARBOSULFAN,"0,05","3,38"
BACILLUS THURINGIENSIS,"0,05","3,60"
FLUSILAZOLE,"0,05","0,68"
DIMETHENAMID,"0,04","5,97"
TRALKOXYDIM,"0,04","0,80"
ABAMECTIN,"0,03","6,40"
MEFENACET,"0,01","3,09"
BROMOBUTIDE,"0,01","3,09"
IMAZOSULFURON,"0,01","3,09"
DICHLORMID,"0,01","1,88"
MONOCROTOPHOS,"0,01","1,95"
ALPHA-CYPERMETHRIN,"0,00","0,59"
FENOXAPROP-P-ETHYL,"0,00","0,12"
PYRACLOSTROBIN,"0,00","0,04"
ACETAMIPRID,"0,00","0,04"
PROFENOPHOS,"0,00","0,04"