compound,sales,volume
CHLORANTRANILIPROLE,"290,85","2855,72"
PICOXYSTROBIN,"206,55","6642,72"
CYPROCONAZOLE,"137,01","4545,33"
INDOXACARB,"92,75","2441,21"
METSULFURON,"74,69","1202,31"
TRIBENURON,"64,12","410,47"
THIFENSULFURON,"55,89","267,95"
RIMSULFURON,"48,44","464,09"
COPPER FUNGICIDES,"42,70","5998,52"
CHLORIMURON,"39,59","574,56"
GLYPHOSATE,"39,27","10241,08"
CHLORSULFURON,"38,15","164,29"
TRIFLUSULFURON,"28,40","66,50"
CYMOXANIL,"25,01","1837,16"
METHOMYL,"22,20","860,96"
NICOSULFURON,"21,42","267,17"
PENTHIOPYRAD,"17,19","506,84"
DIURON,"16,52","1690,83"
SPINETORAM,"14,71","360,46"
HALOXYFOP,"14,60","963,00"
FLUMIOXAZIN,"13,62","101,13"
FAMOXADONE,"13,38","357,76"
HEXAZINONE,"12,43","1164,56"
"2,4-D","10,92","885,35"
MANCOZEB,"10,67","1331,62"
MESOTRIONE,"10,36","157,37"
PROQUINAZID,"10,29","224,64"
FLUROXYPYR,"8,58","207,08"
ZETA-CYPERMETHRIN,"8,21","334,37"
SULFOMETURON,"8,19","808,75"
METRIBUZIN,"7,66","79,65"
CARFENTRAZONE,"7,63","31,27"
QUIZALOFOP-P-ETHYL,"7,29","1596,57"
QUIZALOFOP,"6,96","839,48"
CHLOROTHALONIL,"6,89","323,20"
CHLORIMURON-ETHYL,"6,65","141,26"
LENACIL,"6,37","309,74"
OXAMYL,"6,29","142,34"
FLUSILAZOLE,"6,24","198,89"
PYRITHIOBAC,"5,28","41,44"
FLUPYRSULFURON,"5,23","11,58"
METSULFURON-METHYL,"5,18","133,84"
CHLORPYRIFOS,"5,12","179,93"
ACETOCHLOR,"4,59","972,96"
DICAMBA,"4,56","110,44"
LINURON,"4,13","88,08"
CARBENDAZIM,"3,66","128,93"
SULFENTRAZONE,"3,53","72,89"
IMAZAMOX,"3,23","85,00"
S-METOLACHLOR,"3,12","748,99"
BENSULFURON,"2,88","228,04"
THIAMETHOXAM,"2,83","19,93"
ATRAZINE,"2,67","702,94"
PROCHLORAZ,"2,41","102,19"
IMIDACLOPRID,"2,27","200,97"
TEBUCONAZOLE,"2,22","83,49"
RIMFULFURON,"2,06","50,70"
AZIMSULFURON,"1,71","0,84"
SULFOMETURON-METHYL,"1,67","7,93"
ETHAMETSULFURON,"1,63","1,67"
CYANTRANILIPROLE,"1,47","0,00"
PROPAQUIZAFOP,"1,17","49,60"
ISOXAFLUTOLE,"1,17","7,97"
BROMACIL,"1,13","38,19"
METCONAZOLE,"1,09","39,85"
DIFLUFENICAN,"1,08","7,10"
BENZOVINDIFLUPYR,"1,06","46,80"
FLUPYRSULFURON-METHYL,"0,98","1,15"
FLORASULAM,"0,88","5,95"
TERBUTHYLAZINE,"0,82","24,60"
PETHOXAMID,"0,82","24,60"
ISOXADIFEN,"0,66","1,64"
TRIBENURON-METHYL,"0,48","1,33"
BROMOXYNIL,"0,44","26,95"
FOLPET,"0,44","46,03"
TETRACONAZOLE,"0,42","41,36"
CLOMAZONE,"0,40","11,55"
ACETAMIPRID,"0,36","23,86"
MECOPROP,"0,35","21,80"
BACILLUS PUMILUS,"0,33","20,36"
ETHAMETSULFURON-METHYL,"0,33","0,48"
CYPERMETHRIN,"0,27","22,84"
OXAZICLOMEFONE,"0,25","6,91"
CLOMEPROP,"0,25","6,91"
FOSETYL,"0,21","28,13"
PROPANIL,"0,20","31,71"
BACILLUS THURINGIENSIS,"0,17","11,88"
FLUVALINATE,"0,14","3,60"
MEFENACET,"0,07","9,22"
PENDIMETHALIN,"0,07","6,25"
QUINCLORAC,"0,03","1,24"
CYAZOFAMID,"0,02","1,28"
MCPA,"0,02","3,89"
HEXYTHIAZOX,"0,01","0,15"
CLODINAFOP,"0,01","0,71"
CLOQUINTOCET,"0,01","0,71"