manufacturer,sales,salesPct,volume,volumePct
Syngenta,"2396,81","18,92","232056,94","11,35"
Monsanto,"1859,03","14,68","431170,10","21,08"
Bayer Crop Science,"1073,95","8,48","80825,76","3,95"
Chinese Companies,"1063,85","8,40","264150,56","12,92"
Dupont,"700,98","5,53","27952,09","1,37"
BASF,"657,94","5,19","38356,43","1,88"
Dow Agrosciences,"634,87","5,01","91721,31","4,49"
Adama,"346,12","2,73","49048,61","2,40"
FMC,"303,19","2,39","33617,72","1,64"
Not Identified,"248,21","1,96","110335,00","5,40"
Various,"232,74","1,84","58457,66","2,86"
Sumitomo Chemical,"221,72","1,75","8418,11","0,41"
Sinochem,"199,31","1,57","46889,83","2,29"
Nufarm,"152,42","1,20","34030,06","1,66"
UPL,"142,58","1,13","28436,54","1,39"
Albaugh,"127,65","1,01","32182,97","1,57"
Arysta Lifescience,"108,51","0,86","14316,85","0,70"
Nissan Chemical,"98,81","0,78","9087,43","0,44"
Wynca,"91,93","0,73","30374,46","1,49"
Loveland Products,"77,38","0,61","11896,47","0,58"
Nihon Nohyaku,"58,56","0,46","2103,89","0,10"
Zhejiang Zhongshi,"57,06","0,45","28565,02","1,40"
Macdermid Agricultural Solutions,"54,95","0,43","3909,04","0,19"
Amvac,"51,72","0,41","8361,97","0,41"
Valent Biosciences,"50,71","0,40","796,90","0,04"
ACA,"48,00","0,38","10523,78","0,51"
Sipcam Nichino,"44,49","0,35","8495,00","0,42"
Mitsui Chemical,"42,38","0,33","3637,46","0,18"
Iharabras,"38,95","0,31","1571,41","0,08"
Atanor,"38,12","0,30","10922,63","0,53"
Swal,"37,95","0,30","7859,24","0,38"
Hokko Chemical,"32,52","0,26","1522,47","0,07"
Others,"32,29","0,25","11870,09","0,58"
Cheminova,"29,99","0,24","3841,43","0,19"
Excel,"28,21","0,22","4745,04","0,23"
Scotts,"26,67","0,21","3187,81","0,16"
Kumiai Chemical,"26,48","0,21","1598,71","0,08"
Jiangsu Lanfeng,"24,98","0,20","5572,02","0,27"
Insecticides India,"22,53","0,18","5531,14","0,27"
Nordox,"22,50","0,18","5055,30","0,25"
Agricultural Chemicals (Korea),"21,98","0,17","1463,45","0,07"
Schelkovo,"21,02","0,17","820,59","0,04"
Hyderabad Chemicals,"20,75","0,16","5069,91","0,25"
Gharda,"20,41","0,16","6537,97","0,32"
Daqing Zhifeng,"20,21","0,16","10451,90","0,51"
Rallis,"19,59","0,15","2703,71","0,13"
Red Surcos,"18,40","0,15","5083,29","0,25"
Ishihara,"17,98","0,14","1589,42","0,08"
August Crop Protection,"17,27","0,14","949,23","0,05"
Indofil,"17,01","0,13","3660,52","0,18"
Dhanuka,"16,95","0,13","2524,19","0,12"
Tenkoz,"16,07","0,13","4476,05","0,22"
Astraco,"15,96","0,13","1342,09","0,07"
Chemtura,"15,20","0,12","4676,51","0,23"
Psc-2,"14,96","0,12","808,86","0,04"
Crystal Crop Protection,"14,74","0,12","1418,27","0,07"
Sipcam,"14,48","0,11","3430,02","0,17"
SBM Development,"14,26","0,11","3037,29","0,15"
Agrocentro,"14,10","0,11","815,33","0,04"
Thirty Agro,"14,07","0,11","1553,36","0,08"
Nidera,"13,83","0,11","2980,42","0,15"
Nippon Soda,"13,75","0,11","172,29","0,01"
Ihara,"13,25","0,10","754,85","0,04"
Dongbu-Hannong,"12,66","0,10","4715,43","0,23"
Agrofina,"12,49","0,10","1740,25","0,09"
Coromandel,"12,15","0,10","4338,91","0,21"
Chia-Tai,"11,59","0,09","6137,25","0,30"
Nagarjuna Agrichem,"11,58","0,09","2313,34","0,11"
Tecnomyl,"11,25","0,09","2368,35","0,12"
Gowan,"11,09","0,09","1035,42","0,05"
Kyung Nong,"10,85","0,09","1803,19","0,09"
Winfield,"10,80","0,09","1748,26","0,09"
Sumi Agro,"10,71","0,08","185,85","0,01"
Agro Chem Pty Ltd,"10,70","0,08","8988,16","0,44"
Cia Cibeles,"10,37","0,08","570,77","0,03"
Isagro,"10,02","0,08","3130,77","0,15"
Agrochemical Technologies Llc,"9,83","0,08","835,86","0,04"
Chemico Limited,"9,14","0,07","897,43","0,04"
Tshn,"9,12","0,07","2044,55","0,10"
Meiji Seika,"8,88","0,07","375,21","0,02"
SDS,"8,82","0,07","290,86","0,01"
Agrochim,"8,72","0,07","849,38","0,04"
Jiangsu Agrochem Laboratory,"8,45","0,07","28416,40","1,39"
Phyteurop,"8,35","0,07","558,33","0,03"
Young Ii,"7,89","0,06","7472,81","0,37"
Af-Chem Safoso,"7,85","0,06","491,75","0,02"
Meiji Seika Pharma,"7,31","0,06","279,39","0,01"
Agross,"7,29","0,06","809,27","0,04"
Krishi Rasayan,"6,93","0,05","1037,17","0,05"
Eastern Agro,"6,75","0,05","814,08","0,04"
Belchim Crop Protection,"6,69","0,05","629,58","0,03"
Villa,"6,69","0,05","311,90","0,02"
Nihon Kayaku,"6,57","0,05","1327,20","0,06"
Certis,"6,31","0,05","686,62","0,03"
Helm,"5,91","0,05","1212,69","0,06"
Shandong Luba,"5,89","0,05","1721,27","0,08"
An-Giang,"5,75","0,05","1607,48","0,08"
Sapec,"5,53","0,04","718,72","0,04"
Rotam,"5,48","0,04","357,53","0,02"
Proquimur,"5,26","0,04","302,67","0,01"
Bo Chemical,"5,21","0,04","638,89","0,03"
Philagro,"5,06","0,04","272,52","0,01"
Makhteshim Agan,"4,86","0,04","5192,46","0,25"
Agro-Kanesho,"4,72","0,04","745,80","0,04"
Zhejiang Xinan Chemical Industrial Group,"4,69","0,04","1006,39","0,05"
Point Agro,"4,65","0,04","728,26","0,04"
Sipcam UPL,"4,57","0,04","1268,05","0,06"
Pato,"4,57","0,04","5051,99","0,25"
Pesticides India,"4,51","0,04","2558,60","0,13"
Hindustan Insecticides,"4,42","0,03","1555,17","0,08"
AGM,"4,42","0,03","1063,49","0,05"
Mitre Somboon Co. Ltd,"4,37","0,03","3671,78","0,18"
Dien-Ban,"4,24","0,03","1510,24","0,07"
Tampa,"4,22","0,03","722,58","0,04"
Vipesco,"4,22","0,03","1390,05","0,07"
Erawan Chemical,"4,18","0,03","2481,93","0,12"
Anhui Costar Biochemistry,"4,15","0,03","967,29","0,05"
ACP,"4,03","0,03","92,85","0,00"
Viet-Thang,"3,94","0,03","1295,79","0,06"
Pt.Centa Brasindo Abadi Chemical,"3,89","0,03","2000,07","0,10"
Otsuka Chemical,"3,70","0,03","278,04","0,01"
Callivoire,"3,66","0,03","522,91","0,03"
Hebei Veyong Bio-Chemical,"3,62","0,03","107,51","0,01"
Jingbo Agrochemicals Technology,"3,62","0,03","29,42","0,00"
SPC,"3,61","0,03","1103,01","0,05"
Crompton,"3,60","0,03","168,96","0,01"
Shandong Weifang Rainbow,"3,43","0,03","812,22","0,04"
Farm Hannong,"3,41","0,03","53,44","0,00"
Kaken,"3,41","0,03","197,14","0,01"
Act Phoryfact Industry Co.,"3,40","0,03","2825,59","0,14"
Atar Do Brasil,"3,39","0,03","1128,00","0,06"
Meghmani,"3,39","0,03","372,63","0,02"
Agrochimichny Technologii,"3,36","0,03","897,91","0,04"
Anasac,"3,29","0,03","812,73","0,04"
Thanh-Dien,"3,27","0,03","46,49","0,00"
Sankyo Agro,"3,26","0,03","202,72","0,01"
ASP,"3,24","0,03","1180,80","0,06"
Spiess Urania,"3,15","0,02","203,20","0,01"
Ukragrocom,"3,10","0,02","1101,08","0,05"
Agrus,"3,08","0,02","159,43","0,01"
Chimiberg / Diachem S.P.A,"2,98","0,02","862,77","0,04"
Agritec,"2,88","0,02","376,78","0,02"
Insumos Agroquimicos S.A.,"2,86","0,02","283,75","0,01"
"Shandong Qiaochang Chemical, Jiangyin City Fuda Agrochemical","2,82","0,02","1095,74","0,05"
Zhejiang Jifanda Biochemical,"2,73","0,02","837,63","0,04"
Kureha Chemical,"2,67","0,02","61,49","0,00"
Nova,"2,66","0,02","902,53","0,04"
Agro East,"2,65","0,02","403,51","0,02"
Foremoe Thai Corporation Co.Ltd,"2,63","0,02","2204,48","0,11"
Cropchem,"2,53","0,02","840,00","0,04"
Zhejiang Shenghua Biok Biology,"2,50","0,02","352,81","0,02"
Enbio,"2,49","0,02","419,72","0,02"
Kyoyu Agri,"2,49","0,02","277,79","0,01"
Agricultura Nacional,"2,42","0,02","576,07","0,03"
Agro Tech,"2,41","0,02","265,15","0,01"
Foragro,"2,40","0,02","139,25","0,01"
Jiangsu Huagma Agrochemical,"2,40","0,02","149,81","0,01"
Agrosoluciones,"2,39","0,02","168,08","0,01"
Neoagrum S.A.C.,"2,38","0,02","493,77","0,02"
Silvestre Peru S.A.C.,"2,31","0,02","326,00","0,02"
Cerexagri,"2,28","0,02","645,62","0,03"
Master Seed Corporation,"2,16","0,02","1021,90","0,05"
Disagro,"2,13","0,02","68,71","0,00"
Psc-1,"2,09","0,02","621,75","0,03"
Nonghyup Chemical,"2,09","0,02","230,57","0,01"
Xnk-Hoa-Binh,"2,08","0,02","683,81","0,03"
Agroser S.A.,"2,07","0,02","468,35","0,02"
ISK Biosciences,"2,03","0,02","14,75","0,00"
Gleba,"2,03","0,02","371,56","0,02"
AFA,"2,01","0,02","477,17","0,02"
Sharda,"2,00","0,02","155,61","0,01"
Safa Tarim,"1,97","0,02","823,50","0,04"
Zagro Corp,"1,92","0,02","1563,17","0,08"
Yip-In-Tsoi,"1,92","0,02","1114,70","0,05"
Tecnologia Quimica Y Comercio,"1,91","0,02","325,05","0,02"
Alm,"1,88","0,01","291,37","0,01"
Agromed,"1,82","0,01","240,70","0,01"
Agrorus,"1,81","0,01","203,62","0,01"
Alfasmartagro,"1,79","0,01","640,37","0,03"
Sahai-Kaset,"1,76","0,01","1361,91","0,07"
Pt Agricon,"1,74","0,01","80,24","0,00"
Zhejiang Sega Science And Technology,"1,71","0,01","184,35","0,01"
Calli Ghana Company,"1,70","0,01","174,34","0,01"
"Xing Nhong (Thailand) Co.,Ltd","1,69","0,01","1420,86","0,07"
Scam,"1,67","0,01","398,78","0,02"
Kamer Co.Ltd,"1,65","0,01","1387,41","0,07"
SRC,"1,58","0,01","392,29","0,02"
Industrial Quím.Key S.A.,"1,58","0,01","311,78","0,02"
Atlantic Ultra Trade Co. Ltd,"1,57","0,01","2157,55","0,11"
Pt Petrokimia Kayaku,"1,56","0,01","1874,10","0,09"
Dr. Farmer,"1,54","0,01","30,91","0,00"
Quilubrisa SA,"1,53","0,01","128,42","0,01"
Rizobacter,"1,52","0,01","232,89","0,01"
Shandong Zhongshi Pesticide,"1,50","0,01","759,95","0,04"
Ningbo Sunjoy,"1,49","0,01","127,70","0,01"
Tessenderlo Kerley,"1,49","0,01","213,49","0,01"
Farmex,"1,48","0,01","447,85","0,02"
Green Express,"1,46","0,01","322,46","0,02"
Sudarshan,"1,46","0,01","261,15","0,01"
Pilarquim,"1,46","0,01","452,67","0,02"
All Chem,"1,45","0,01","31,31","0,00"
Agrofertil S.A.,"1,43","0,01","55,90","0,00"
Astrachem,"1,42","0,01","360,55","0,02"
Inbound,"1,40","0,01","168,45","0,01"
Atul,"1,40","0,01","171,32","0,01"
Qindao Kyx Chemical,"1,39","0,01","106,90","0,01"
La Tijereta,"1,38","0,01","311,27","0,02"
Golden Stork,"1,38","0,01","203,94","0,01"
Helena Chemical,"1,35","0,01","763,14","0,04"
Reiss,"1,34","0,01","72,72","0,00"
Headland Agrochemicals Limited,"1,33","0,01","185,81","0,01"
Agro Expert,"1,32","0,01","49,76","0,00"
Pt.Adil Makmur Fajar,"1,32","0,01","340,76","0,02"
Nihon Green & Garden,"1,30","0,01","27,96","0,00"
Shandong Binnong Technology,"1,29","0,01","471,27","0,02"
Alpha Agrotech Co.Ltd,"1,29","0,01","951,64","0,05"
Farmchem (K)Limited,"1,27","0,01","227,35","0,01"
Chemical Agro,"1,26","0,01","441,16","0,02"
Chemtec,"1,26","0,01","75,53","0,00"
Map-Pacific,"1,25","0,01","220,66","0,01"
Jiangsu Good Harvest - Weien Agrochemical,"1,24","0,01","489,23","0,02"
Quingdao Kyx Chemical,"1,24","0,01","40,87","0,00"
Planters Products,"1,24","0,01","47,50","0,00"
Fedo Agencies,"1,22","0,01","130,98","0,01"
M/S Bharat Insecticides Limited,"1,21","0,01","17,81","0,00"
Palm Hannong,"1,18","0,01","88,98","0,00"
Formulagro Srl,"1,17","0,01","236,20","0,01"
Shangdong Luba Chemical,"1,17","0,01","272,01","0,01"
Agristar,"1,16","0,01","42,05","0,00"
TJC,"1,15","0,01","357,74","0,02"
Agrobest,"1,14","0,01","408,23","0,02"
Fedearroz,"1,12","0,01","388,22","0,02"
Icona,"1,10","0,01","248,76","0,01"
Nanjing No1 Pesticides Group,"1,09","0,01","254,81","0,01"
Tri Corp,"1,08","0,01","222,43","0,01"
Utsunomiya Kasei,"1,07","0,01","234,73","0,01"
East Hannong,"1,07","0,01","363,97","0,02"
Sun Moon Green Science,"1,06","0,01","76,07","0,00"
Kenso,"1,05","0,01","272,56","0,01"
Amiran Kenya Ltd,"1,03","0,01","446,28","0,02"
Agroquimicos Arroceros De Col. S.A. Agroz S.A.,"1,02","0,01","154,94","0,01"
Eastern Hannong,"1,01","0,01","175,23","0,01"
Chimagromarketing,"0,98","0,01","332,98","0,02"
Drexel,"0,96","0,01","175,27","0,01"
Jiangsu Flag Chemical,"0,96","0,01","57,92","0,00"
Rimac SA,"0,96","0,01","84,74","0,00"
VCS Agrochem Co.Ltd,"0,94","0,01","1016,77","0,05"
Unochem Corporation,"0,94","0,01","983,45","0,05"
Oxon,"0,93","0,01","63,53","0,00"
Life Scientific,"0,92","0,01","38,98","0,00"
Jiangsu Heye Agrochemical,"0,91","0,01","52,75","0,00"
"Shandong Dacheng Pesticide, Sinon Corporation","0,91","0,01","211,49","0,01"
Sparta Research Ltd.,"0,90","0,01","23,21","0,00"
Agroflex,"0,88","0,01","395,15","0,02"
Technoexport,"0,88","0,01","24,95","0,00"
An-Nong,"0,88","0,01","34,25","0,00"
Sotus,"0,88","0,01","653,25","0,03"
Ldc,"0,88","0,01","156,33","0,01"
Nanjing Ronch Chemical,"0,86","0,01","59,31","0,00"
Bharat Insecticides,"0,86","0,01","9,11","0,00"
Hodogaya Chemical,"0,86","0,01","16,88","0,00"
Koruma,"0,85","0,01","262,44","0,01"
Zuari,"0,84","0,01","426,45","0,02"
Aimco,"0,83","0,01","142,97","0,01"
Pt.Multi Sarana Indotani,"0,83","0,01","202,72","0,01"
Iqv,"0,82","0,01","68,11","0,00"
Importadora Colombiana De Productos Veterinarios Imcolvet,"0,82","0,01","323,45","0,02"
Compañía Agricola S.A.S,"0,81","0,01","238,80","0,01"
4 Farmers,"0,81","0,01","250,50","0,01"
Anhui Guangxin Agrochemical,"0,80","0,01","258,06","0,01"
Borches Y Cia S.A.,"0,78","0,01","194,98","0,01"
Shandong A& Fine Agrochemicals,"0,76","0,01","64,48","0,00"
Repsol YPF - Argentina,"0,75","0,01","179,64","0,01"
Art Ratek,"0,75","0,01","178,58","0,01"
Galenika,"0,75","0,01","120,59","0,01"
Ineplus,"0,73","0,01","43,11","0,00"
Ansett International,"0,73","0,01","222,43","0,01"
Godrej Agrovet,"0,72","0,01","224,05","0,01"
Pitsulin,"0,72","0,01","282,24","0,01"
Ipco,"0,72","0,01","85,61","0,00"
Chd's Agrochemicals,"0,71","0,01","15,18","0,00"
Challenges,"0,71","0,01","125,69","0,01"
Pt Andika Multi Prima,"0,71","0,01","1062,77","0,05"
Chem Fact Co. Ltd,"0,70","0,01","728,54","0,04"
Shandong Dongtai Agricultural Chemistry,"0,70","0,01","20,17","0,00"
Fluence Topsen,"0,69","0,01","7,30","0,00"
Zhejiang Jinfanda Biochemical Co Ltd,"0,69","0,01","309,48","0,02"
S&P Formulator,"0,69","0,01","581,15","0,03"
Societe Financiere De Pontarlier,"0,69","0,01","115,71","0,01"
RMG,"0,68","0,01","78,75","0,00"
TCCA,"0,67","0,01","257,70","0,01"
Agro Klinge,"0,67","0,01","448,42","0,02"
Matrisoja,"0,65","0,01","23,55","0,00"
Willowood,"0,65","0,01","38,56","0,00"
Standon Chemicals Limited,"0,65","0,01","94,99","0,00"
Tropical Distribution,"0,65","0,01","142,59","0,01"
Jiangsu Kesheng Group,"0,64","0,01","31,94","0,00"
Shenzhen Noposion Agrochemical,"0,64","0,01","106,22","0,01"
Chemical Agrosava,"0,64","0,01","117,69","0,01"
Pt.Rolimex Kimia Nusa,"0,62","0,00","156,93","0,01"
Shandong Qiaochang Chemical,"0,60","0,00","193,93","0,01"
Pt Biotis Agrindo,"0,60","0,00","155,78","0,01"
Bof Agrochemical,"0,60","0,00","199,28","0,01"
Osho Chemical Industries Ltd,"0,60","0,00","61,53","0,00"
Forward,"0,59","0,00","75,49","0,00"
Kingtai,"0,58","0,00","77,73","0,00"
Nanjing Redsun,"0,58","0,00","100,10","0,00"
Chemotecnica,"0,57","0,00","78,14","0,00"
Rainbow Chemical,"0,57","0,00","60,46","0,00"
Kurama Co.,"0,57","0,00","107,28","0,01"
Griffin,"0,57","0,00","195,89","0,01"
Topraksu Tarim,"0,57","0,00","192,73","0,01"
Agrigento,"0,56","0,00","75,78","0,00"
Shandong Vicome Greenland Chemical,"0,55","0,00","164,72","0,01"
Fertil Kimya,"0,54","0,00","207,30","0,01"
Xiangyang Truecan Chemical,"0,53","0,00","7,21","0,00"
Pt Prima Karya Berjaya,"0,53","0,00","840,00","0,04"
Lanther Quimica S.A.,"0,53","0,00","98,21","0,00"
Shinjenta,"0,52","0,00","3,91","0,00"
Sankei Chemical,"0,50","0,00","76,41","0,00"
Tecnoquimicas S.A.,"0,50","0,00","223,72","0,01"
Suncrop Group,"0,50","0,00","98,11","0,00"
Cig,"0,50","0,00","80,12","0,00"
Brometan S.R.L.,"0,49","0,00","21,83","0,00"
Agricense,"0,49","0,00","155,28","0,01"
Zhejiang Deqing Banghua Chemical Co. Ltd,"0,49","0,00","192,43","0,01"
Waruwa Biochemical,"0,49","0,00","15,85","0,00"
YPF,"0,49","0,00","522,89","0,03"
Kumark,"0,49","0,00","319,75","0,02"
Hanearl Science,"0,48","0,00","97,93","0,00"
Ngoc-Tung,"0,48","0,00","94,08","0,00"
Agrimat Limited,"0,48","0,00","103,85","0,01"
Zhejiang E-Tong Chemical,"0,48","0,00","70,61","0,00"
OMA,"0,47","0,00","37,57","0,00"
Montana S A,"0,47","0,00","62,88","0,00"
Cbc,"0,46","0,00","4,91","0,00"
Kwizda Agro,"0,46","0,00","5,33","0,00"
Zakłady Chemiczne Organika-Azot ,"0,46","0,00","38,27","0,00"
Sabero,"0,46","0,00","114,02","0,01"
Platin Kimya,"0,45","0,00","47,51","0,00"
Nitrap S.R.L.,"0,45","0,00","84,08","0,00"
Summit Agro,"0,45","0,00","21,36","0,00"
Metropol Kimya,"0,45","0,00","1874,95","0,09"
Tien-Giang,"0,45","0,00","164,36","0,01"
Barclay Chemicals,"0,45","0,00","92,65","0,00"
"Anhui Youngsu Pesticides Co., Ltd.","0,44","0,00","118,14","0,01"
Mezfer,"0,44","0,00","32,85","0,00"
Agriguard Limited,"0,44","0,00","129,42","0,01"
All-Gro,"0,43","0,00","44,56","0,00"
ADC,"0,42","0,00","6,00","0,00"
ACM,"0,42","0,00","486,02","0,02"
Diachem,"0,41","0,00","73,14","0,00"
Sri Chareon Inter Chemical,"0,41","0,00","345,64","0,02"
Pytech Chemicals,"0,41","0,00","83,89","0,00"
Zhejiang An Chemical Industrial Group Co Ltd,"0,40","0,00","116,25","0,01"
Shinjenta/Sonbochemical,"0,40","0,00","5,16","0,00"
Quimicos Oma Ltda,"0,40","0,00","150,45","0,01"
Przedsiębiorstwo Usługowo Handlowe Chemirol,"0,40","0,00","63,62","0,00"
Four Brothers Group Pakistan,"0,40","0,00","44,91","0,00"
Agriphar,"0,39","0,00","42,28","0,00"
Phyto-Chim,"0,39","0,00","157,54","0,01"
Genfarm Crop Protection,"0,39","0,00","52,41","0,00"
Euro Chemicals S.R.O,"0,39","0,00","72,65","0,00"
Shijiazhuang Longhui Fine Chemical,"0,39","0,00","32,51","0,00"
Cansa Kimya,"0,38","0,00","103,53","0,01"
Janssen,"0,37","0,00","5,22","0,00"
Quimor S.A.,"0,37","0,00","124,15","0,01"
Pt.Sari Kresna Kimia,"0,37","0,00","93,60","0,00"
Sunset Kimya,"0,37","0,00","124,98","0,01"
Ramac,"0,36","0,00","10,50","0,00"
Chem-Wise Limited,"0,36","0,00","52,41","0,00"
Cibochem S.A.S,"0,36","0,00","84,61","0,00"
Pt. Tazar Guna Mandiri,"0,36","0,00","93,37","0,00"
Huayang,"0,35","0,00","10,95","0,00"
Fj Agrochemicals Co Ltd,"0,35","0,00","171,72","0,01"
Shijiazhuang Xingbai Bio Engineering,"0,35","0,00","19,49","0,00"
Vecol,"0,35","0,00","30,63","0,00"
Pt.Petrosida Gresik,"0,34","0,00","79,81","0,00"
Hui Kwang,"0,34","0,00","49,46","0,00"
Gsp Crop Science,"0,34","0,00","5,96","0,00"
New Chemie,"0,34","0,00","110,60","0,01"
Zhejiang Changxing Zhongshan Chemical,"0,33","0,00","112,67","0,01"
Lanafil,"0,33","0,00","5,94","0,00"
DTE,"0,33","0,00","13,78","0,00"
Agrochemprom,"0,32","0,00","4,86","0,00"
Deva Agro,"0,32","0,00","111,75","0,01"
Farmagro,"0,32","0,00","15,91","0,00"
Hekta,"0,32","0,00","131,21","0,01"
GCM,"0,32","0,00","121,96","0,01"
Pt Mekar Warna Sari,"0,31","0,00","480,00","0,02"
Riceco International,"0,31","0,00","10,90","0,00"
Willbur-Ellis,"0,31","0,00","51,88","0,00"
"Wuxi Hemei Agrochemical Technology Co.,Ltd","0,31","0,00","85,49","0,00"
Agnova,"0,30","0,00","8,78","0,00"
Dong-Xanh,"0,30","0,00","5,90","0,00"
Zhejiang Zhongshan Chemical Group,"0,29","0,00","68,36","0,00"
Zhejian Xinan Chemical Industrial Group,"0,29","0,00","147,66","0,01"
Anhui Fengle Agrochemical,"0,29","0,00","51,44","0,00"
Kirovo-Chepetsk,"0,28","0,00","15,62","0,00"
Nagase,"0,28","0,00","20,54","0,00"
Wuxi Xinan Pesticides,"0,28","0,00","23,06","0,00"
Hygrotech E.A. Ltd,"0,28","0,00","6,23","0,00"
Yongnon Biosciences,"0,28","0,00","92,69","0,00"
Agroexpert,"0,28","0,00","36,68","0,00"
Jiangsu Chunjiang Agrochemical,"0,28","0,00","20,83","0,00"
Hualong Chemical Industry,"0,27","0,00","0,86","0,00"
Phartec S.A.C.,"0,27","0,00","44,21","0,00"
Goldengrass Limited,"0,27","0,00","39,31","0,00"
Fleoci,"0,27","0,00","55,18","0,00"
Tnhh-Hoa-Nong,"0,26","0,00","5,04","0,00"
Jian Kesai Agrochem,"0,26","0,00","85,23","0,00"
Croptech S.A.,"0,26","0,00","36,11","0,00"
Zhejiang Yongnong Chem. Ind.,"0,26","0,00","3,17","0,00"
Key,"0,26","0,00","14,67","0,00"
Pt.Deltagro Mulia Sejati,"0,26","0,00","67,20","0,00"
Cv.Saprotan Utama,"0,26","0,00","67,20","0,00"
Phuong-Mai,"0,25","0,00","3,60","0,00"
Sx-Tm-Toba,"0,25","0,00","3,60","0,00"
Thahn-Son,"0,25","0,00","3,60","0,00"
Riyue Chemical,"0,25","0,00","25,70","0,00"
Quimica-Masso,"0,25","0,00","12,61","0,00"
Kinyield Industry,"0,25","0,00","30,86","0,00"
Market Premier S.A.S,"0,25","0,00","67,79","0,00"
Ngoc-Yen,"0,25","0,00","6,15","0,00"
C.Q. Masso,"0,25","0,00","13,38","0,00"
Saat Andina S.A.,"0,24","0,00","91,47","0,00"
North China Pharmaceutical Group,"0,24","0,00","11,61","0,00"
Jiangsu Seven Continent Green Chemical,"0,23","0,00","183,08","0,01"
Pt Centa Brasindo Abadi Chemical Industry,"0,23","0,00","360,00","0,02"
Pamhan Nong,"0,23","0,00","38,56","0,00"
Labrotorios Microsules,"0,23","0,00","6,41","0,00"
ZemlyakoFF,"0,23","0,00","104,61","0,01"
Taicang City Pesticide Factory,"0,23","0,00","70,85","0,00"
Limor Agroprotección S.A.,"0,23","0,00","135,82","0,01"
Gap Industry,"0,23","0,00","190,64","0,01"
Invesa,"0,23","0,00","57,43","0,00"
Advance Crop Protection Limited,"0,22","0,00","22,94","0,00"
Sembrado S.A.,"0,22","0,00","52,26","0,00"
Jiangsu Tuoqiu Agrochemicals,"0,22","0,00","2,15","0,00"
Himagromarketing,"0,22","0,00","40,38","0,00"
Saro Ghana,"0,22","0,00","49,99","0,00"
Interoc Sociedad Anonima,"0,22","0,00","6,56","0,00"
Xi An Peak Bio-Chemical,"0,22","0,00","14,92","0,00"
Shandong Kexin Biochemical,"0,21","0,00","73,26","0,00"
Shandong Weifang Shuangxing Pesticide,"0,21","0,00","5,81","0,00"
Fuzion,"0,21","0,00","20,56","0,00"
Juangsu Huangma Agrochemical,"0,21","0,00","14,41","0,00"
Sulphur Mills,"0,20","0,00","42,39","0,00"
Degesch,"0,20","0,00","28,59","0,00"
Shandong United Pesticide Industry,"0,20","0,00","1,35","0,00"
Por Chimitech,"0,19","0,00","104,68","0,01"
Compañia Cibeles S.A.,"0,19","0,00","23,12","0,00"
Undagro S.A.,"0,19","0,00","54,21","0,00"
Red Sun,"0,19","0,00","70,86","0,00"
Jiangsu Fengdeng Pesticide- Zhejiang Bosst Cropscince,"0,19","0,00","6,99","0,00"
Sunset Tarim,"0,19","0,00","96,95","0,00"
Rosi Chemical Co,"0,18","0,00","12,52","0,00"
Invequimica S.A. Invesa,"0,18","0,00","121,88","0,01"
Hebei Shandong Dacheng Pesticides,"0,18","0,00","105,80","0,01"
Crop-Protection,"0,18","0,00","93,17","0,00"
Pt Agro Natural,"0,18","0,00","49,91","0,00"
Agria,"0,18","0,00","89,28","0,00"
Chai Tai,"0,18","0,00","109,59","0,01"
Peru Productos Agricolas Sac,"0,18","0,00","14,22","0,00"
Crop Protection S.A.C.,"0,18","0,00","92,55","0,00"
DVA Agro,"0,18","0,00","38,14","0,00"
Flagchem International,"0,17","0,00","133,96","0,01"
Crop Business S.A.C.,"0,17","0,00","20,40","0,00"
"Chia Yi Chemical Industry Co., Ltd. - Fulon Chemical Industrial Co., Ltd.","0,17","0,00","37,36","0,00"
Unikem,"0,17","0,00","62,14","0,00"
Agrofuturo Paraguay,"0,17","0,00","13,79","0,00"
Himservice,"0,17","0,00","30,85","0,00"
Dong-Thap,"0,17","0,00","2,40","0,00"
Thanh-Hung,"0,17","0,00","2,40","0,00"
Jinan Kesai Agrochemical,"0,16","0,00","27,83","0,00"
Prodinsa Argentina SA,"0,16","0,00","38,78","0,00"
Agrovillalgo Ltda,"0,16","0,00","43,95","0,00"
Elgon Chemicals Ltd,"0,16","0,00","40,51","0,00"
Industria Tecnologica Agricola Del Peru,"0,16","0,00","17,22","0,00"
Almanda Israel,"0,15","0,00","3,47","0,00"
Selectis,"0,15","0,00","21,60","0,00"
Adjuvants Plus Inc,"0,15","0,00","38,44","0,00"
Afrasa,"0,15","0,00","17,30","0,00"
Công Ty Cp Hoá Chất Nn Hoà Bình,"0,15","0,00","30,53","0,00"
Murphy Chemicals,"0,15","0,00","30,46","0,00"
Truschem,"0,15","0,00","69,17","0,00"
Alfa,"0,15","0,00","35,58","0,00"
Agsco,"0,14","0,00","63,28","0,00"
Lachlan (K) Ltd,"0,14","0,00","34,67","0,00"
Comercial Andina Industrial S.A.C,"0,14","0,00","14,89","0,00"
Clayton Plant Protection Limited,"0,14","0,00","14,23","0,00"
Dupocsa,"0,14","0,00","11,31","0,00"
Gat Rima,"0,14","0,00","19,65","0,00"
Anhui Huaxing Chemical Industry,"0,14","0,00","1,69","0,00"
Hextar-Chemicals,"0,14","0,00","69,88","0,00"
C.I. Agroquimica Colombiana De Caldas S.A.,"0,13","0,00","42,15","0,00"
Pan Agriculture Limited,"0,13","0,00","19,65","0,00"
Electroquimica West S.A.,"0,13","0,00","31,64","0,00"
Colinagro S.A.,"0,13","0,00","25,08","0,00"
Sociedad Anonima Fausto Piaggio,"0,13","0,00","79,93","0,00"
Tundra,"0,13","0,00","24,25","0,00"
Nanjing Rhonquim,"0,13","0,00","1,44","0,00"
Hortus S A,"0,13","0,00","9,93","0,00"
"Jiangsu Kuaida Agrochemical Co., Ltd.","0,13","0,00","22,42","0,00"
"Probelte, S.A","0,13","0,00","20,85","0,00"
Becesane Sro,"0,13","0,00","14,63","0,00"
Marketing Agrícola Srl,"0,12","0,00","28,69","0,00"
Zheijiang E-Tong Chemical,"0,12","0,00","15,11","0,00"
Hailir Pesticides And Chemicals,"0,12","0,00","7,24","0,00"
Tonghua Pesticide Chemical Industry Stock,"0,12","0,00","9,24","0,00"
Zhejiang Tide Cropscience,"0,12","0,00","23,20","0,00"
Otuka Agri Techno,"0,12","0,00","6,12","0,00"
Thai-Phong,"0,12","0,00","35,52","0,00"
Jiangsu Aljin Agrochemical,"0,11","0,00","8,34","0,00"
Astranova,"0,11","0,00","59,43","0,00"
Chimac Agriphar,"0,11","0,00","6,67","0,00"
Kokusai Eisei,"0,11","0,00","1,83","0,00"
Bernardo Quím.,"0,11","0,00","5,30","0,00"
Orbit Chemicals Ltd,"0,11","0,00","20,83","0,00"
Gordons Professional Turf & Ornamental Products,"0,11","0,00","49,61","0,00"
Tigipesco,"0,11","0,00","10,89","0,00"
Bioquimica Agro,"0,11","0,00","9,27","0,00"
Joc Great Wall Corp,"0,10","0,00","26,40","0,00"
Rosagrohim,"0,10","0,00","14,26","0,00"
Yancheng Limin Chemical Co Ltd.,"0,10","0,00","5,89","0,00"
Talanu Chemical Ltda.,"0,10","0,00","38,28","0,00"
Ryukyu Sankei,"0,10","0,00","10,82","0,00"
Drokasa Peru S.A.,"0,10","0,00","30,19","0,00"
Zhejiang Well-Done Chemical Co.,"0,10","0,00","29,40","0,00"
Asiatic Agricultural Industries,"0,10","0,00","23,32","0,00"
Aris Industrial,"0,10","0,00","11,05","0,00"
Planta Industrial Fenasol (Local),"0,10","0,00","3,30","0,00"
Saxon Technologies Ltd,"0,10","0,00","6,56","0,00"
Dice,"0,10","0,00","30,21","0,00"
Jixi Agrosino Biotech,"0,10","0,00","12,41","0,00"
Kuang-Hwa,"0,10","0,00","15,89","0,00"
Alm-Ao,"0,09","0,00","50,55","0,00"
Songbo Chemical,"0,09","0,00","13,23","0,00"
Jiangsu Yunfan Chemical,"0,09","0,00","11,27","0,00"
"Shanxi Qixing Pesticide Co.,Ltd","0,09","0,00","27,30","0,00"
Ali Akbar Group Pakistan,"0,09","0,00","15,67","0,00"
Cropsa Ltda,"0,09","0,00","27,36","0,00"
Chemline Africa Ltd,"0,09","0,00","2,21","0,00"
Gold Co.,"0,09","0,00","2,98","0,00"
Xian Pendelu Chemical Industry,"0,09","0,00","6,98","0,00"
Agruskhim,"0,09","0,00","15,78","0,00"
SCEVE,"0,09","0,00","7,94","0,00"
Multivet Enterprises,"0,09","0,00","19,02","0,00"
Dalzon Cemicals,"0,09","0,00","20,73","0,00"
Aesthetics Ltd,"0,09","0,00","288,52","0,01"
"Jinan Leeder Chemical Co.,Ltd","0,09","0,00","25,20","0,00"
Pt.Agrow,"0,09","0,00","22,10","0,00"
Parijat Industiries,"0,08","0,00","10,32","0,00"
Thon-Trang,"0,08","0,00","1,20","0,00"
"Zhejiang Xinnong Chemical Co., Ltd.","0,08","0,00","16,55","0,00"
S.Ando Y Cia. S.A.,"0,08","0,00","1,61","0,00"
Agroquimica Ecifonpa Ltda,"0,08","0,00","21,58","0,00"
Hankuk Samgong/Eastern Agro,"0,08","0,00","20,17","0,00"
Bell Industries Ltd,"0,08","0,00","44,74","0,00"
Agchemaccess,"0,08","0,00","22,14","0,00"
Fenasol,"0,08","0,00","0,85","0,00"
Yifan Biotechnology Group,"0,08","0,00","13,45","0,00"
EGBM,"0,08","0,00","17,52","0,00"
Bioagrocorp,"0,08","0,00","36,91","0,00"
Jiangyin Sulifine Chemicals,"0,07","0,00","27,87","0,00"
"Nantong Pest Agrochemical Co., Ltd","0,07","0,00","28,87","0,00"
"Bhagiradha Chemicals & Industries Ltd, Jiangsu Kuaida Agrochemical Co., Ltd.","0,07","0,00","14,95","0,00"
Zhejiang Province Changxing First Chemical,"0,07","0,00","21,51","0,00"
Uniroyal Chemical,"0,07","0,00","5,31","0,00"
Thomhcof Enterprise,"0,07","0,00","15,22","0,00"
Servicios Y Formulaciones Industriales S .A (O) Serfi Sa,"0,07","0,00","25,64","0,00"
Limin Chemicals,"0,07","0,00","23,23","0,00"
Hanseandina Ltda,"0,07","0,00","19,50","0,00"
Long-Hiep,"0,07","0,00","0,98","0,00"
Biomedica Laboratories,"0,07","0,00","13,71","0,00"
Bac Sciencies,"0,07","0,00","5,38","0,00"
Phytotop,"0,07","0,00","22,37","0,00"
Pt.Geka Mitra Niaga,"0,07","0,00","15,30","0,00"
Tm-Group,"0,07","0,00","0,79","0,00"
Cv.Pojok Indah Group,"0,06","0,00","15,30","0,00"
Zhejiang Chemicals Import & Export,"0,06","0,00","5,83","0,00"
Capeagro S.A.C.,"0,06","0,00","4,82","0,00"
Agroinsumos Del Cafe S.A.,"0,06","0,00","25,80","0,00"
Suzhou Jiahui Chemical,"0,06","0,00","14,75","0,00"
Cibeles,"0,06","0,00","2,52","0,00"
Thep-Watana,"0,06","0,00","26,79","0,00"
Pt Solusi Tanaman,"0,06","0,00","13,60","0,00"
Zhengbang Group Shanghai Biochemical Sci-Tech Co,"0,06","0,00","2,87","0,00"
Juanco Sps Ltd,"0,06","0,00","16,77","0,00"
Shanghai E-Tong Chemical,"0,06","0,00","10,92","0,00"
Jining Tiansheng Chemicals,"0,06","0,00","0,33","0,00"
"Guangxi Tianyuan Biochemistry Co., Ltd.","0,06","0,00","28,47","0,00"
United Agri Products,"0,06","0,00","10,20","0,00"
Agrofarm,"0,06","0,00","11,56","0,00"
Sundat,"0,06","0,00","7,18","0,00"
Lainco,"0,06","0,00","3,24","0,00"
Maruo Biochemical,"0,06","0,00","17,64","0,00"
Shandong Huayang,"0,05","0,00","3,52","0,00"
Pt Antako Wisena,"0,05","0,00","11,90","0,00"
Iprochem,"0,05","0,00","15,44","0,00"
Wenzhou Foreign Trade Industrial Product Co Ltd,"0,05","0,00","8,53","0,00"
Shandong Rainbow Chemical,"0,05","0,00","7,43","0,00"
Nanjing Huazhou Pharmaceutical,"0,05","0,00","30,97","0,00"
Novozymes Bioag S.A,"0,05","0,00","12,35","0,00"
American Mo-Sai Company,"0,05","0,00","16,03","0,00"
Rhemaco Enterprise,"0,05","0,00","13,70","0,00"
"Jihua Pesticide Chemical Co.,Ltd","0,05","0,00","26,23","0,00"
"Shanghai Vegcides Bio-Farm(Nanchang) Co.,Ltd","0,05","0,00","15,71","0,00"
Biyontis,"0,05","0,00","11,31","0,00"
Campo Insumos,"0,05","0,00","12,68","0,00"
Vicentin S.A.I.C.,"0,05","0,00","12,29","0,00"
Fosfoquim Argentina S.R.L.,"0,05","0,00","0,00","0,00"
Agrevo,"0,05","0,00","2,34","0,00"
Bach-Long,"0,05","0,00","26,65","0,00"
Vapco,"0,05","0,00","1,11","0,00"
Pt.Agricon,"0,05","0,00","8,11","0,00"
Orion E.A. Ltd,"0,05","0,00","25,13","0,00"
"Anhui Jinjiang Agrochemical Co., Ltd.","0,05","0,00","7,47","0,00"
Obebew Ventures,"0,05","0,00","12,33","0,00"
Trustchem,"0,05","0,00","1,62","0,00"
European Agrichemicals Limited,"0,05","0,00","14,13","0,00"
Nicotex,"0,05","0,00","1,37","0,00"
Shandong Libang Chemical Industry,"0,05","0,00","3,37","0,00"
Jiangsu Changlong Chemical,"0,05","0,00","3,70","0,00"
Cv.Permata Hijau,"0,05","0,00","12,48","0,00"
Capataz,"0,05","0,00","8,92","0,00"
National Phyto,"0,05","0,00","1,33","0,00"
Grocare,"0,05","0,00","23,29","0,00"
Hefei World Chemical Industry,"0,05","0,00","5,81","0,00"
Reposo Saic,"0,05","0,00","14,57","0,00"
Pt Multi Sarana Indotani,"0,04","0,00","11,97","0,00"
Oat Agrio,"0,04","0,00","1,49","0,00"
Cv. Tanijaya Unggul,"0,04","0,00","10,20","0,00"
Zhejiang Heyi Ppesticida & Chemicals,"0,04","0,00","5,20","0,00"
"Zhejiang Province Changxing First Chemical Co., Ltd.","0,04","0,00","13,91","0,00"
Nantong Jinling Agricultural Chemical,"0,04","0,00","8,87","0,00"
Shanghai Mio,"0,04","0,00","13,25","0,00"
Pacific Science,"0,04","0,00","2,53","0,00"
Sintesis Quimica,"0,04","0,00","10,44","0,00"
Pt Adil Makmur Fajar,"0,04","0,00","11,57","0,00"
Hankuk Samgong,"0,04","0,00","3,53","0,00"
Faedah Jaya,"0,04","0,00","11,09","0,00"
Pt Guna Tani Anadi,"0,04","0,00","11,17","0,00"
Pt Kresna Bumitama Sejati,"0,04","0,00","10,78","0,00"
Takim Bitki Koruma,"0,04","0,00","4,39","0,00"
Thai Herbicide,"0,04","0,00","19,24","0,00"
Nanjing Best Green Chemical,"0,04","0,00","17,73","0,00"
Dera Chemical Industries (K) Ltd,"0,04","0,00","7,61","0,00"
Chalver Agro,"0,04","0,00","4,62","0,00"
Barpen International S.A.,"0,04","0,00","15,14","0,00"
Calister,"0,04","0,00","0,25","0,00"
Green Phyto,"0,04","0,00","6,22","0,00"
Agro Max,"0,03","0,00","1,12","0,00"
San Miguel Industrial SA,"0,03","0,00","7,44","0,00"
Picon Sac,"0,03","0,00","2,63","0,00"
United Suppliers,"0,03","0,00","5,44","0,00"
Deutsche Japan,"0,03","0,00","0,55","0,00"
Agripac,"0,03","0,00","6,52","0,00"
Biostadt,"0,03","0,00","4,41","0,00"
"Jiamusi Xingyu Biotechnique Development Co., Ltd.","0,03","0,00","2,34","0,00"
Lier Chemical,"0,03","0,00","2,16","0,00"
Consorcio Limor Ltda,"0,03","0,00","10,55","0,00"
Agros,"0,03","0,00","0,25","0,00"
Proterra Pty Ltd,"0,03","0,00","6,12","0,00"
Yancheng Tai He Chemicals,"0,03","0,00","4,25","0,00"
Ciagro Srl,"0,03","0,00","2,10","0,00"
"Shijiazhuang Baofeng Chemical Co., Ltd.","0,03","0,00","9,02","0,00"
Hims Agroscience,"0,03","0,00","0,23","0,00"
Yixing X. Chemical,"0,03","0,00","3,75","0,00"
Cedar Crystal Chemical S. A.,"0,02","0,00","6,57","0,00"
Stockton,"0,02","0,00","4,04","0,00"
China National Chemical Construction,"0,02","0,00","4,17","0,00"
Nantong Jiangshan Agrochemical & Chemicals,"0,02","0,00","4,17","0,00"
"Jiangsu Longxing Sci&Tech Trading Co.,Ltd","0,02","0,00","18,39","0,00"
Mabru,"0,02","0,00","1,49","0,00"
Talex Peru Sociedad Anonima Cerrada,"0,02","0,00","2,60","0,00"
Gyeongnong,"0,02","0,00","12,47","0,00"
Nichino,"0,02","0,00","0,44","0,00"
Kc Life Sciences,"0,02","0,00","1,32","0,00"
Globachem,"0,02","0,00","0,52","0,00"
Ningbo Generic Chemical,"0,02","0,00","5,96","0,00"
Decia,"0,02","0,00","0,00","0,00"
Pt.Petrokimia Kayaku,"0,02","0,00","5,10","0,00"
Synergy Trading,"0,02","0,00","4,59","0,00"
Wuhan Chemicals,"0,02","0,00","2,23","0,00"
Agrospec,"0,02","0,00","1,51","0,00"
Shejiang Sega Science And Technology,"0,02","0,00","0,93","0,00"
Jingma Chemicals,"0,02","0,00","4,84","0,00"
"Guangdong Liwei Chemical Industry Co., Ltd.","0,02","0,00","2,34","0,00"
Alchimex,"0,02","0,00","1,49","0,00"
Imaspro,"0,02","0,00","7,57","0,00"
Halcon Agroindustrial Ltda,"0,02","0,00","0,51","0,00"
"Shandong Caoda Chemicals, Hubei Sanonda","0,02","0,00","2,38","0,00"
Avio Cooperation,"0,01","0,00","0,71","0,00"
Ritter,"0,01","0,00","6,81","0,00"
Falcrop S.A.,"0,01","0,00","3,27","0,00"
Induagro S.R.L.,"0,01","0,00","2,83","0,00"
Dien-Thanh,"0,01","0,00","0,78","0,00"
Cv.Abadi Jaya,"0,01","0,00","3,40","0,00"
King Chemical,"0,01","0,00","1,20","0,00"
Belcrop NV,"0,01","0,00","2,67","0,00"
Hangzhou Quingfeng Agrochemical,"0,01","0,00","6,66","0,00"
Sociedad Agricola Viru Sa,"0,01","0,00","1,33","0,00"
Asociacion De Productores De Palta,"0,01","0,00","2,24","0,00"
Insumos Rebolledo Sioufi Cooperativa Multiactiva,"0,01","0,00","3,32","0,00"
Sucrop S.A.,"0,01","0,00","5,71","0,00"
Serfi,"0,01","0,00","1,57","0,00"
Instituto Peruano Del Esparrago Y Hortalizas,"0,01","0,00","2,75","0,00"
Universal Crop Protection Alliance,"0,01","0,00","5,11","0,00"
Rudong Huasheng,"0,01","0,00","1,28","0,00"
Agrocesar Ltda,"0,01","0,00","2,93","0,00"
Jiangsu Kuaida Agrochemical,"0,01","0,00","1,83","0,00"
"Nanlong (Lian Yun Gang) Chemicals Co., Ltd.","0,01","0,00","0,47","0,00"
Ingus Peru S.A.C. - Ingus Sac,"0,01","0,00","8,49","0,00"
Sodiphyto,"0,01","0,00","2,16","0,00"
Elf Atochem Agri France,"0,01","0,00","1,51","0,00"
Mts Agro-Alliance,"0,01","0,00","0,25","0,00"
Dow / Dupont,"0,01","0,00","0,70","0,00"
Zhejiang Qianjiang Biochemical,"0,01","0,00","1,47","0,00"
Rvr Agro E.I.R.L.,"0,01","0,00","0,59","0,00"
Veterinary And Agricultural Products Manufacturing Co Ltd,"0,01","0,00","1,21","0,00"
Quimica Suiza Industrial Del Peru S.A.,"0,01","0,00","0,70","0,00"
Siner S.A.,"0,01","0,00","1,45","0,00"
Hubei Sanonda,"0,01","0,00","2,84","0,00"
Laboratorios La Gardenia Ltda,"0,01","0,00","1,22","0,00"
Globalcrop,"0,01","0,00","2,65","0,00"
Novagro-Ag S.A.C.,"0,01","0,00","2,06","0,00"
Nanjing Essence Fine Chemical,"0,01","0,00","1,67","0,00"
Lfs Kemi,"0,01","0,00","0,06","0,00"
Agritac,"0,01","0,00","0,09","0,00"
Fitocorp Sac,"0,01","0,00","0,87","0,00"
"Jiangsu Baoling Chemical Co., Ltd.","0,01","0,00","0,93","0,00"
Agricola Nacional,"0,01","0,00","0,10","0,00"
Guangzhou Hesenta Chemical,"0,01","0,00","2,50","0,00"
Pt Inti Evespring Indonesia,"0,01","0,00","0,18","0,00"
Agralba,"0,01","0,00","2,35","0,00"
Diichi Nohyaku,"0,01","0,00","2,64","0,00"
Sinon,"0,00","0,00","1,12","0,00"
Quingdao Hansen Biologic Science,"0,00","0,00","0,23","0,00"
Aranami S.A.,"0,00","0,00","0,30","0,00"
Interfarm Uk Limited,"0,00","0,00","1,16","0,00"
Silcrop,"0,00","0,00","0,30","0,00"
Jiang Heyi Chemical,"0,00","0,00","0,32","0,00"
Shanghai Pest International Trade Co Ltd,"0,00","0,00","0,15","0,00"
Agrii,"0,00","0,00","0,64","0,00"
San Alf Químicas,"0,00","0,00","0,43","0,00"
Jin Chemical,"0,00","0,00","0,04","0,00"
Xin Jin Pesticide Factory,"0,00","0,00","0,53","0,00"
Jiangsu Pesticide Research Institute,"0,00","0,00","0,05","0,00"
Corporacion Green Valley,"0,00","0,00","0,23","0,00"
Shenzhen Baocheng Chemical Industry,"0,00","0,00","0,03","0,00"
Dla Agro,"0,00","0,00","0,01","0,00"
Agrichem Limited,"0,00","0,00","0,00","0,00"
Tagros Chemicals,"0,00","0,00","0,01","0,00"
Minagro Industria Quimica Ltda,"0,00","0,00","0,05","0,00"
Aako,"0,00","0,00","0,00","0,00"
Action Pin,"0,00","0,00","0,00","0,00"
AFD Chemicals,"0,00","0,00","0,00","0,00"
Agform,"0,00","0,00","0,00","0,00"
Agri Gento,"0,00","0,00","0,00","0,00"
Agrostulln,"0,00","0,00","0,00","0,00"
Agrotechnics Nederland,"0,00","0,00","0,00","0,00"
Ahk-Agro,"0,00","0,00","0,00","0,00"
Air Water Tansan,"0,00","0,00","0,00","0,00"
Ajay-Biotech,"0,00","0,00","0,00","0,00"
Alchimex / Nippon Soda / Summit Agro,"0,00","0,00","0,00","0,00"
Alchimex / Nufarm,"0,00","0,00","0,00","0,00"
Almiro,"0,00","0,00","0,00","0,00"
Alpha Chemical,"0,00","0,00","0,00","0,00"
Alta,"0,00","0,00","0,00","0,00"
Altitude Crop Innovations,"0,00","0,00","0,00","0,00"
Ambientalis De Alida Belart,"0,00","0,00","0,00","0,00"
Amuragrohim,"0,00","0,00","0,00","0,00"
An Nông,"0,00","0,00","0,00","0,00"
Ancom,"0,00","0,00","0,00","0,00"
Anhui Sida Pesticide,"0,00","0,00","0,00","0,00"
Argorich,"0,00","0,00","0,00","0,00"
"Bailing International Co., Ltd","0,00","0,00","0,00","0,00"
Barmac,"0,00","0,00","0,00","0,00"
Bayer / FMC,"0,00","0,00","0,00","0,00"
Biagro,"0,00","0,00","0,00","0,00"
Biesterfeld Siemsgluss International,"0,00","0,00","0,00","0,00"
Biofa,"0,00","0,00","0,00","0,00"
Biopreparaty,"0,00","0,00","0,00","0,00"
Blu Line - Nufarm,"0,00","0,00","0,00","0,00"
Bsg S.A.,"0,00","0,00","0,00","0,00"
Bugao,"0,00","0,00","0,00","0,00"
Bvtv-Phuong-Mai,"0,00","0,00","0,00","0,00"
C.P.C Crop Protection,"0,00","0,00","0,00","0,00"
Cas,"0,00","0,00","0,00","0,00"
Cbw Chemie,"0,00","0,00","0,00","0,00"
Ccab,"0,00","0,00","0,00","0,00"
Celaflor Gmbh&Co.Kg,"0,00","0,00","0,00","0,00"
Central Glass,"0,00","0,00","0,00","0,00"
Central-G,"0,00","0,00","0,00","0,00"
Chemicals Independent Group / Aectra Agrochemicals / Nanjing Chivalry Chemical,"0,00","0,00","0,00","0,00"
Ciba Geigy,"0,00","0,00","0,00","0,00"
Comp.Arg.De Semillas,"0,00","0,00","0,00","0,00"
Công Ty Tnhh - Tm,"0,00","0,00","0,00","0,00"
Công Ty Tnhh An Nông,"0,00","0,00","0,00","0,00"
Công Ty Tnhh Hoá Nông Hợp Trí,"0,00","0,00","0,00","0,00"
Consagro,"0,00","0,00","0,00","0,00"
Creed Laboratories,"0,00","0,00","0,00","0,00"
Crinigan S.A.,"0,00","0,00","0,00","0,00"
Crop Care,"0,00","0,00","0,00","0,00"
De Sangosse,"0,00","0,00","0,00","0,00"
Deponoa,"0,00","0,00","0,00","0,00"
Diverse,"0,00","0,00","0,00","0,00"
Doctor Farmer,"0,00","0,00","0,00","0,00"
Dongbang Agro,"0,00","0,00","0,00","0,00"
Dongbu Fine Chemical,"0,00","0,00","0,00","0,00"
Dow Agrosciences / Syngenta,"0,00","0,00","0,00","0,00"
Earth Chemical,"0,00","0,00","0,00","0,00"
Eurofyto Sa,"0,00","0,00","0,00","0,00"
Everris,"0,00","0,00","0,00","0,00"
Facyt S.R.L.,"0,00","0,00","0,00","0,00"
Feinchemie Schwebda Gmbh,"0,00","0,00","0,00","0,00"
FP Keller,"0,00","0,00","0,00","0,00"
Fumakilla,"0,00","0,00","0,00","0,00"
Gat Microencapsulation,"0,00","0,00","0,00","0,00"
Gritche Cooperative,"0,00","0,00","0,00","0,00"
Handelsgesellschaft Detlef Von Appen,"0,00","0,00","0,00","0,00"
Harabras,"0,00","0,00","0,00","0,00"
Hockley International,"0,00","0,00","0,00","0,00"
Hokkai Sankyo,"0,00","0,00","0,00","0,00"
Hokusan,"0,00","0,00","0,00","0,00"
Hosoi Chemical,"0,00","0,00","0,00","0,00"
Hpm,"0,00","0,00","0,00","0,00"
I.Q. Del Valles,"0,00","0,00","0,00","0,00"
Idemitsu Kosan,"0,00","0,00","0,00","0,00"
Iil,"0,00","0,00","0,00","0,00"
Inbio,"0,00","0,00","0,00","0,00"
Innvigo,"0,00","0,00","0,00","0,00"
Inoue Sekkai (Kouchi),"0,00","0,00","0,00","0,00"
Intrachem Bio Italia S.P.A.,"0,00","0,00","0,00","0,00"
Invivo,"0,00","0,00","0,00","0,00"
IPESA SA,"0,00","0,00","0,00","0,00"
"Japan Xingye Chemistry Co.,Ltd","0,00","0,00","0,00","0,00"
"Jia  Non Enterprise Co., Ltd","0,00","0,00","0,00","0,00"
"Jiangsu Changqing Agrochemical Co.,Ltd.","0,00","0,00","0,00","0,00"
Jiangsu Fengshan Group,"0,00","0,00","0,00","0,00"
Jiangsu Huifeng,"0,00","0,00","0,00","0,00"
"Jiangsu Pesticide Research Institute Co.,Ltd","0,00","0,00","0,00","0,00"
Jiangsu Yangnong Chemical,"0,00","0,00","0,00","0,00"
Kaken-Seiyaku,"0,00","0,00","0,00","0,00"
Kenogard,"0,00","0,00","0,00","0,00"
Kiên Nam,"0,00","0,00","0,00","0,00"
Koppert,"0,00","0,00","0,00","0,00"
Lazorik-Don,"0,00","0,00","0,00","0,00"
Lg Chemicals,"0,00","0,00","0,00","0,00"
Lg Life Sciences,"0,00","0,00","0,00","0,00"
Lianyungang Liben Agro-Chemical Co.,"0,00","0,00","0,00","0,00"
Luxembourg Industries,"0,00","0,00","0,00","0,00"
Luxemburg Pamol,"0,00","0,00","0,00","0,00"
Magan,"0,00","0,00","0,00","0,00"
Manica,"0,00","0,00","0,00","0,00"
Marubeni,"0,00","0,00","0,00","0,00"
Masso Agro,"0,00","0,00","0,00","0,00"
Mateo  Impex,"0,00","0,00","0,00","0,00"
Mega Biotechnology,"0,00","0,00","0,00","0,00"
Mifalchim,"0,00","0,00","0,00","0,00"
Neudorff,"0,00","0,00","0,00","0,00"
New Agri S.R.L.  (Pescara),"0,00","0,00","0,00","0,00"
Nihon Carlit,"0,00","0,00","0,00","0,00"
Nitrasoil Argentina S.A.,"0,00","0,00","0,00","0,00"
Noda Shokukin,"0,00","0,00","0,00","0,00"
Nufarm / Syngenta,"0,00","0,00","0,00","0,00"
Organic Park Llc,"0,00","0,00","0,00","0,00"
Organika-Sarzyna Sa,"0,00","0,00","0,00","0,00"
Palomino,"0,00","0,00","0,00","0,00"
Peters & Burg,"0,00","0,00","0,00","0,00"
Pfizer,"0,00","0,00","0,00","0,00"
Plantan,"0,00","0,00","0,00","0,00"
Platform,"0,00","0,00","0,00","0,00"
Prager Fischhandel Sro,"0,00","0,00","0,00","0,00"
Procera / Synchem Agroindustries,"0,00","0,00","0,00","0,00"
Profina,"0,00","0,00","0,00","0,00"
Protegran S.A.,"0,00","0,00","0,00","0,00"
Psi (Uk) Limited,"0,00","0,00","0,00","0,00"
Q-Chem,"0,00","0,00","0,00","0,00"
Quimycal S.A.,"0,00","0,00","0,00","0,00"
Raffiesen,"0,00","0,00","0,00","0,00"
Rhizobacter,"0,00","0,00","0,00","0,00"
Samal Agro,"0,00","0,00","0,00","0,00"
Sản Phẩm,"0,00","0,00","0,00","0,00"
Shandong Cydna,"0,00","0,00","0,00","0,00"
Shanxi Hentin Chem-Tech,"0,00","0,00","0,00","0,00"
Shenyang Institute Of Chemical Industry,"0,00","0,00","0,00","0,00"
Shin-Etsu,"0,00","0,00","0,00","0,00"
Sibagrohim,"0,00","0,00","0,00","0,00"
Skyanide Chemicals Gmbh,"0,00","0,00","0,00","0,00"
SNAD,"0,00","0,00","0,00","0,00"
Soc.Financière De Pontarlier,"0,00","0,00","0,00","0,00"
Songbo Chemical/Agrotech/Panme-Pam Hannong/Baiel,"0,00","0,00","0,00","0,00"
Stoller,"0,00","0,00","0,00","0,00"
Sujoong,"0,00","0,00","0,00","0,00"
Sumika-Takeda Agro,"0,00","0,00","0,00","0,00"
Sumitomo Kinzoku Kozan,"0,00","0,00","0,00","0,00"
Synthos Agro,"0,00","0,00","0,00","0,00"
T. Stanes & Company,"0,00","0,00","0,00","0,00"
Tamer S.A.,"0,00","0,00","0,00","0,00"
Taminco,"0,00","0,00","0,00","0,00"
Tarsis,"0,00","0,00","0,00","0,00"
Tellurium Chemical,"0,00","0,00","0,00","0,00"
Thái Nông,"0,00","0,00","0,00","0,00"
Thanh Sơn Hoá Nông,"0,00","0,00","0,00","0,00"
Toa Gosei,"0,00","0,00","0,00","0,00"
Toagosei Chemical,"0,00","0,00","0,00","0,00"
Tokuyama,"0,00","0,00","0,00","0,00"
Tomen Agro,"0,00","0,00","0,00","0,00"
Tradi Agra,"0,00","0,00","0,00","0,00"
Triachem,"0,00","0,00","0,00","0,00"
Unique Marketing Sl,"0,00","0,00","0,00","0,00"
Vivagro,"0,00","0,00","0,00","0,00"
Volcano Agroscience,"0,00","0,00","0,00","0,00"
Yashima Sangyo,"0,00","0,00","0,00","0,00"
Yonezawa Chemical,"0,00","0,00","0,00","0,00"
Zen-Noh,"0,00","0,00","0,00","0,00"
Zhejiang Agrin,"0,00","0,00","0,00","0,00"
Фмрус,"0,00","0,00","0,00","0,00"
Quimica Moderna S.A Quimor S.A,"0,00","0,00","0,00","0,00"
Empresa Agroindustrial Casa Grande Socie,"0,00","0,00","0,00","0,00"
Pt Dharma Guna Wibawa,"0,00","0,00","0,00","0,00"
Novance,"0,00","0,00","0,00","0,00"
Medentech,"0,00","0,00","0,00","0,00"
Plant Solutions,"0,00","0,00","0,00","0,00"
Etablissement Bangbe,"0,00","0,00","0,00","0,00"
Agrosan Kim,"0,00","0,00","0,00","0,00"
Weihai Hanfu Biochemical Medicine,"0,00","0,00","0,00","0,00"
Laboratorios Agroenzymas Sa,"0,00","0,00","0,00","0,00"
Allchem Srl,"0,00","0,00","0,00","0,00"
Zhejiang Heben Pesticide & Chemical,"0,00","0,00","0,00","0,00"
Report Agrochemicals (Jiangsu),"0,00","0,00","0,00","0,00"
"Bilag Industries, India","0,00","0,00","0,00","0,00"
Jiangsu Institute Of Economes,"0,00","0,00","0,00","0,00"
Jiangsu Repont Pesticide Factory,"0,00","0,00","0,00","0,00"
Heranba Industries,"0,00","0,00","0,00","0,00"
Pt Agrotech Pesticide Industry,"0,00","0,00","0,00","0,00"
Feras Kimya,"0,00","0,00","0,00","0,00"
Pt Tanindo Subur Prima,"0,00","0,00","0,00","0,00"
Flamingo Horticulture,"0,00","0,00","0,00","0,00"
Soluciones Tecnicas Del Agro Sac,"0,00","0,00","0,00","0,00"
Zhejiang Longyou East Anasac Crop Science,"0,00","0,00","0,00","0,00"
Dudutech (K) Ltd,"0,00","0,00","0,00","0,00"
Nantong Fivestar Chemical,"0,00","0,00","0,00","0,00"
Leads Agriproduct Corp,"0,00","0,00","0,00","0,00"
Westrade,"0,00","0,00","0,00","0,00"
Conquest Agrochemicals Pty Ltd,"0,00","0,00","0,00","0,00"
Gomez Cardona Esdras Antonio,"0,00","0,00","0,00","0,00"
Procitrus,"0,00","0,00","0,00","0,00"
Camposol,"0,00","0,00","0,00","0,00"
Beijing Multigrass Formulation,"0,00","0,00","0,00","0,00"
Cv Abadi Jaya,"0,00","0,00","0,00","0,00"
Jiangsu Qiaoji Biochem,"0,00","0,00","0,00","0,00"
Anhui Zhongshan Chemical,"0,00","0,00","0,00","0,00"
Pt Bina Guna Kimia,"0,00","0,00","0,00","0,00"
Pt. Tanindo Intertraco,"0,00","0,00","0,00","0,00"
Binab Bio Innovation,"0,00","0,00","0,00","0,00"
Bio Dalia Technologies,"0,00","0,00","0,00","0,00"
Wuhan Kaernel Bio-Pio-Pesticide Co,"0,00","0,00","0,00","0,00"
Cytozyme,"0,00","0,00","0,00","0,00"
Marketing Arm International,"0,00","0,00","0,00","0,00"
Appliedchem,"0,00","0,00","0,00","0,00"
Grupo Bioquimico Mexicano,"0,00","0,00","0,00","0,00"
Advansia,"0,00","0,00","0,00","0,00"
Jangsu Repont Pesticides Factory,"0,00","0,00","0,00","0,00"
Azufres Landia,"0,00","0,00","0,00","0,00"
Mitsubishi Colombia Ltda.,"0,00","0,00","0,00","0,00"
Hunagzhou Southern Suburb Chemical,"0,00","0,00","0,00","0,00"
Zenith,"0,00","0,00","0,00","0,00"
Grenn Phyto,"0,00","0,00","0,00","0,00"
Hangzhou Hexin Chemical,"0,00","0,00","0,00","0,00"
Topex Agro,"0,00","0,00","0,00","0,00"
Kwidza Agro / Syngenta,"0,00","0,00","0,00","0,00"
Cross Link,"0,00","0,00","0,00","0,00"
Jiangsu Golden Phoenix Agro-Chemical,"0,00","0,00","0,00","0,00"
Phytocare S.A.S,"0,00","0,00","0,00","0,00"
Yangcheng Limin Chemical,"0,00","0,00","0,00","0,00"
Dogal Kimyev,"0,00","0,00","0,00","0,00"
Jiangsu Jiangnan Agrochemical,"0,00","0,00","0,00","0,00"
Suterra,"0,00","0,00","0,00","0,00"
Zakl. Chem,"0,00","0,00","0,00","0,00"
Trece,"0,00","0,00","0,00","0,00"
Jiangsu Tianrong Group,"0,00","0,00","0,00","0,00"
Fivestar Nantong Chemical,"0,00","0,00","0,00","0,00"
Seracsa,"0,00","0,00","0,00","0,00"
Hangzhou Superagro Chemical,"0,00","0,00","0,00","0,00"
Cangzhou Green Chemical Industry,"0,00","0,00","0,00","0,00"
Shenyang Sciencreat Chemicals,"0,00","0,00","0,00","0,00"
Agrotec,"0,00","0,00","0,00","0,00"
Jiangsu Ruidong Pesticide,"0,00","0,00","0,00","0,00"
Topscore Chemicals,"0,00","0,00","0,00","0,00"
Pt Agrochemica,"0,00","0,00","0,00","0,00"
Discrystal Ltda Distribuidora De Productos Agricolas,"0,00","0,00","0,00","0,00"
Beta Chemicals,"0,00","0,00","0,00","0,00"
Fine Agro Chemicals,"0,00","0,00","0,00","0,00"
Atlantic & Pacific,"0,00","0,00","0,00","0,00"
Cv Uni Agro Chemica,"0,00","0,00","0,00","0,00"
Inica,"0,00","0,00","0,00","0,00"
Antalien,"0,00","0,00","0,00","0,00"
Pt Indagro,"0,00","0,00","0,00","0,00"
Shanghai Safechem International Trade Co Ltd P O,"0,00","0,00","0,00","0,00"
Alzchem,"0,00","0,00","0,00","0,00"
Pace Internacional,"0,00","0,00","0,00","0,00"
Ballagro,"0,00","0,00","0,00","0,00"
Mkd Group,"0,00","0,00","0,00","0,00"
Evergreen Chemicals Ltd,"0,00","0,00","0,00","0,00"
"Zhejiang Bosst Cropscience Co., Ltd.","0,00","0,00","0,00","0,00"
Ningbo Tide Imp & Exp Co Ltd,"0,00","0,00","0,00","0,00"
Oasis Agroscience,"0,00","0,00","0,00","0,00"
Jiangsu Reher Chemical,"0,00","0,00","0,00","0,00"
Kapi Ltd,"0,00","0,00","0,00","0,00"
Lst,"0,00","0,00","0,00","0,00"
Topserve East Africa Ltd,"0,00","0,00","0,00","0,00"
J H Biotech,"0,00","0,00","0,00","0,00"
C. Woermann Ltd,"0,00","0,00","0,00","0,00"
Yanbian Chunlei Biochemical Reagents,"0,00","0,00","0,00","0,00"
Shangai Chan International Trade,"0,00","0,00","0,00","0,00"
Goldchance Fluence Industries,"0,00","0,00","0,00","0,00"
Agromen Chemical Co,"0,00","0,00","0,00","0,00"
Agrochem Do Brasil,"0,00","0,00","0,00","0,00"
Shandong Weifang Chemical,"0,00","0,00","0,00","0,00"
Tech Agro,"0,00","0,00","0,00","0,00"
Boyut,"0,00","0,00","0,00","0,00"
Adnicol,"0,00","0,00","0,00","0,00"
Emusci,"0,00","0,00","0,00","0,00"
Agri Sciences Tarim,"0,00","0,00","0,00","0,00"
Hangzhou Changhe Agricultural Chemical,"0,00","0,00","0,00","0,00"
Hok Bioscience Hangzou,"0,00","0,00","0,00","0,00"
Pt Dalzon Chemicals,"0,00","0,00","0,00","0,00"
Sino Rainbow Agrosciences,"0,00","0,00","0,00","0,00"
Callister S.A (Local),"0,00","0,00","0,00","0,00"
Pt Deltagro Mulia Sejati,"0,00","0,00","0,00","0,00"
Shanghai Heben-Eastsun Medicaments,"0,00","0,00","0,00","0,00"
Shinetsu Chemical,"0,00","0,00","0,00","0,00"
Indalva,"0,00","0,00","0,00","0,00"
Cv Saprotan Utama,"0,00","0,00","0,00","0,00"
Agroterm Kft.,"0,00","0,00","0,00","0,00"
Ningbo Yihwei Chemicals,"0,00","0,00","0,00","0,00"
Zheijiang Hetian Chemical,"0,00","0,00","0,00","0,00"
Zaklady Chemiczne Organika Sarzyna,"0,00","0,00","0,00","0,00"
Ingenieria Industrial,"0,00","0,00","0,00","0,00"
Superabono Ltda,"0,00","0,00","0,00","0,00"
Jinan Luba Chemicals,"0,00","0,00","0,00","0,00"
"Hangzhou Southern Suburb Chemical Co., Ltd.","0,00","0,00","0,00","0,00"
Pt Tani Mas Subur,"0,00","0,00","0,00","0,00"
Enzur,"0,00","0,00","0,00","0,00"
Pt Agro Dahlia Profitamas,"0,00","0,00","0,00","0,00"
Microfertisa W.F. & Cia Ltda,"0,00","0,00","0,00","0,00"
Atlantica Agricola,"0,00","0,00","0,00","0,00"
Acay Agro,"0,00","0,00","0,00","0,00"
Neem India Products,"0,00","0,00","0,00","0,00"
Saroneem Biopesticides,"0,00","0,00","0,00","0,00"
Zibo Nab Agrochemicals Limited.,"0,00","0,00","0,00","0,00"
All Gro,"0,00","0,00","0,00","0,00"
"Hengshui Jingmei Chemical Industrial Co., Ltd.","0,00","0,00","0,00","0,00"
Osku,"0,00","0,00","0,00","0,00"
Dismoagro Ltda,"0,00","0,00","0,00","0,00"
Fertiquim Ltda,"0,00","0,00","0,00","0,00"
Vitagro Ltda,"0,00","0,00","0,00","0,00"
Oliagro Ltda,"0,00","0,00","0,00","0,00"
Saldeco,"0,00","0,00","0,00","0,00"
Industrial Sulphur,"0,00","0,00","0,00","0,00"
"Qingdao Audis Bio-Tech Co., Ltd.","0,00","0,00","0,00","0,00"
Zhejiang Pinghu Pesticide Factory,"0,00","0,00","0,00","0,00"
Pyrethrum Board Of Kenya,"0,00","0,00","0,00","0,00"
Real Ipm Company (K) Ltd,"0,00","0,00","0,00","0,00"
Fertiagro,"0,00","0,00","0,00","0,00"
Generic,"0,00","0,00","0,00","0,00"
Biological Control Products,"0,00","0,00","0,00","0,00"
Sino Crop Science,"0,00","0,00","0,00","0,00"
Pt Johny Jaya Makmur,"0,00","0,00","0,00","0,00"
Jiangsu Fengyuan Bioengineering,"0,00","0,00","0,00","0,00"
Kavli,"0,00","0,00","0,00","0,00"
Whenzhou Foreign Trade Industrial Project,"0,00","0,00","0,00","0,00"
Trust Quimica Ltda,"0,00","0,00","0,00","0,00"
Inquiport,"0,00","0,00","0,00","0,00"
Agroimex Trading Sac,"0,00","0,00","0,00","0,00"
Agropharm Africa Ltd,"0,00","0,00","0,00","0,00"
Jiangsu Lulilai,"0,00","0,00","0,00","0,00"
Pt Tanindo Intertraco,"0,00","0,00","0,00","0,00"
Marrone Bio Innovations,"0,00","0,00","0,00","0,00"
Zeenex,"0,00","0,00","0,00","0,00"
Agroenzymas,"0,00","0,00","0,00","0,00"
Rudong Zhongyi Chemical,"0,00","0,00","0,00","0,00"
Chemical-Аgrо,"0,00","0,00","0,00","0,00"
Zhejiang Changxing First Chemicals,"0,00","0,00","0,00","0,00"
Zhongshan Chemical Industries Group,"0,00","0,00","0,00","0,00"
Dansk Landbrugs Grovvareselskab,"0,00","0,00","0,00","0,00"
Halex,"0,00","0,00","0,00","0,00"
Agchem Manufacturing Corp,"0,00","0,00","0,00","0,00"
Cv Agro Chemica,"0,00","0,00","0,00","0,00"
Minerales Eclusivos Y Cia. S.C.A.,"0,00","0,00","0,00","0,00"
General Formulator,"0,00","0,00","0,00","0,00"
Nanjing Cf Agrochemical,"0,00","0,00","0,00","0,00"
Shanghai Kelinon,"0,00","0,00","0,00","0,00"
Yancheng Limin Chemical Company,"0,00","0,00","0,00","0,00"
"Shangai Heben-Eastsun Medicaments Co., Ltd.","0,00","0,00","0,00","0,00"
Phyteurop / Syngenta,"0,00","0,00","0,00","0,00"
"Shanghai Shengnong Pesticide Co., Ltd.","0,00","0,00","0,00","0,00"
Biop Company Ltd,"0,00","0,00","0,00","0,00"
Improchem (Pty) Ltd,"0,00","0,00","0,00","0,00"
Schirm,"0,00","0,00","0,00","0,00"
"Tonghua Pesticide Chemical Industry Stock Co., Ltd.","0,00","0,00","0,00","0,00"
"Shangdong Weifang Rainbow Chemical Co., Ltd.","0,00","0,00","0,00","0,00"
Agritop,"0,00","0,00","0,00","0,00"
Uvasys S.A.C.,"0,00","0,00","0,00","0,00"
Indicem Acledin,"0,00","0,00","0,00","0,00"
Milenia,"0,00","0,00","0,00","0,00"
"Quingdao Hailir Pesticides And Chemicals Co., Ltd.","0,00","0,00","0,00","0,00"
Xi'An Beinonghua Crop Protection,"0,00","0,00","0,00","0,00"
Shaanxi Hengtian Chemical,"0,00","0,00","0,00","0,00"
Agrogestion Vitra,"0,00","0,00","0,00","0,00"
Pt Sari Kresna Kimia,"0,00","0,00","0,00","0,00"