compound,sales,volume
GLYPHOSATE,"1686,23","389837,19"
ACETOCHLOR,"101,47","22612,00"
ATRAZINE,"46,50","10807,16"
CLETHODIM,"22,35","945,07"
BUTACHLOR,"19,85","7000,54"
SILTHIOPHAM,"12,36","121,63"
CLOPYRALID,"9,46","1181,19"
FLUMETSULAM,"9,46","1181,19"
SULFOSULFURON,"8,99","21,93"
DICAMBA,"6,27","636,66"
"2,4-D","5,96","1983,74"
ALACHLOR,"2,72","473,17"
THIAMETHOXAM,"1,95","272,88"
TERBUTHYLAZINE,"0,95","195,72"
NICOSULFURON,"0,20","0,43"
CHLORPYRIFOS,"0,16","37,01"
MANCOZEB,"0,11","121,80"
METALAXYL,"0,11","121,80"
MCPA,"0,07","13,57"
CYPERMETHRIN,"0,04","8,34"