compound,sales,volume
EPOXICONAZOLE,"280,74","10566,48"
FIPRONIL,"131,89","4268,87"
PENDIMETHALIN,"118,11","15905,97"
DIMOXYSTROBIN,"30,12","559,69"
KRESOXIM-METHYL,"23,90","470,28"
METIRAM,"20,37","3373,96"
FLUFENOXURON,"13,49","180,61"
MANCOZEB,"7,59","786,46"
PROFOXYDIM,"5,72","93,73"
ATRAZINE,"3,81","200,36"
SPINOSAD,"2,98","54,53"
GLYPHOSATE,"2,83","730,62"
BROMOXYNIL,"2,35","65,37"
CHLORFENAPYR,"1,91","68,42"
TEPRALOXYDIM,"1,44","148,68"
DIMETHOATE,"1,42","202,53"
IPRODIONE,"1,21","36,80"
ABAMECTIN,"1,05","24,03"
FOLPET,"0,99","54,57"
CARBENDAZIM,"0,91","97,44"
CLOTHIANIDIN,"0,91","33,24"
CHLORPYRIFOS,"0,78","79,19"
CYPERMETHRIN,"0,52","137,32"
FLUCYTHRINATE,"0,46","12,48"
IMAZALIL,"0,32","85,44"
THIOPHANATE-METHYL,"0,31","9,47"
CHLOROTHALONIL,"0,26","21,96"
ISOXAFLUTOLE,"0,24","2,59"
CARBOSULFAN,"0,24","20,00"
MONOCROTOPHOS,"0,18","23,37"
METAFLUMIZONE,"0,17","1,19"
PROPETAMPHOS,"0,17","6,28"
PYRIDABEN,"0,16","3,50"
PICLORAM,"0,11","2,39"
FLUMETRALIN,"0,10","12,42"
ZETA-CYPERMETHRIN,"0,07","3,71"
TRIFLUMIZOLE,"0,06","5,31"
IOXYNIL,"0,05","5,04"
PROPICONAZOLE,"0,02","1,13"
ACEPHATE,"0,02","0,97"