compound,sales,volume
CHLORANTRANILIPROLE,"290,85","2855,72"
CYPROCONAZOLE,"137,01","4545,33"
INDOXACARB,"92,75","2441,21"
GLYPHOSATE,"39,27","10241,08"
METHOMYL,"22,20","860,96"
DIURON,"16,52","1690,83"
SPINETORAM,"14,71","360,46"
FLUMIOXAZIN,"13,62","101,13"
MANCOZEB,"10,67","1331,62"
ZETA-CYPERMETHRIN,"8,21","334,37"
METRIBUZIN,"7,66","79,65"
CHLOROTHALONIL,"6,89","323,20"
OXAMYL,"6,29","142,34"
FLUSILAZOLE,"6,24","198,89"
CHLORPYRIFOS,"5,12","179,93"
ACETOCHLOR,"4,59","972,96"
LINURON,"4,13","88,08"
CARBENDAZIM,"3,66","128,93"
THIAMETHOXAM,"2,83","19,93"
ATRAZINE,"2,67","702,94"
IMIDACLOPRID,"2,27","200,97"
ISOXAFLUTOLE,"1,17","7,97"
BROMOXYNIL,"0,44","26,95"
FOLPET,"0,44","46,03"
TETRACONAZOLE,"0,42","41,36"
CYPERMETHRIN,"0,27","22,84"
PENDIMETHALIN,"0,07","6,25"
HEXYTHIAZOX,"0,01","0,15"