compound,other_name1,other_name2,other_name3,other_name4
"(E,Z)-2,4-DECADIENOATO DE ETILO",,,,
(E)-11-TETRADECEN-1-OL,,,,
1-DODECANOL,,,,
1-TETRADECANOL,,,,
"2,4-D",,,,
"2,4-D AMINE",,,,
"2,4-D DIMETHYLAMINE",,,,
"2,4-D-ETHYL",,,,
"2,4-DB",,,,
"8,10-DODECADIEN-1-OL",,,,
AATC,,,,
ABAMECTIN,,,,
ABSCISIC ACID,,,,
ACEPHATE,,,,
ACEQUINOCYL,,,,
ACETAMIPRID,,,,
ACETATO DE (E)-TETRADECEN-1-ILO,,,,
ACETIC ACID,,,,
ACETOCHLOR,,,,
ACIBENZOLAR,,,,
ACIFLUORFEN,,,,
ACLONIFEN,,,,
ACRINATHRIN,,,,
AGROBACTERIUM RADIOBACTER,,,,
ALACHLOR,,,,
ALANYCARB,,,,
ALDICARB,,,,
ALGAE EXTRACT,,,,
ALPHA CYPERMETHRIN,ALPHA-CYPERMETHRIN,,,
ALUMINIUM PHOSPHIDE,,,,
AMBAM,,,,
AMBLYSEIUS CALIFORNICUS,,,,
AMBLYSEIUS SWIRSKI,,,,
AMETOCTRADIN,,,,
AMETRYN,,,,
AMICARBAZONE,,,,
AMIDOSULFURON,,,,
AMINO ACIDS,,,,
AMINOEHTOXYVINYL GLYCINE,AMINOETHOXYVINILGLYCINE,,,
AMINOPYRALID,AMINOPYRALID 30%,,,
AMINOTRIAZOLE,,,,
AMISULBROM,,,,
AMITRAZ,,,,
AMITROLE,,,,
AMMONIUM SULPHATE,,,,
AMMONIUM THIOCYANATE,,,,
AMPELOMYCES QUISQUALIS,,,,
ANILOFOS,ANILOPHOS,,,
APHIDIUS TRANSCAPINUS,,,,
ASULAM,,,,
ATRAZINE,,,,
AUXINS,,,,
AVERMECTIN,,,,
AZADIRACHTIN,,,,
AZIMSULFURON,,,,
AZOCYCLOTIN,,,,
AZOXYSTROBIN,ASOXYSTROBIN,,,
BACILLUS AMYLOLIQUEFACIENS,,,,
BACILLUS PUMILUS,,,,
BACILLUS SUBTILIS,,,,
BACILLUS THURINGIENSIS,BACILLUS THURINGIENSIS VAR KURSTAKI,,,
BEAUVERIA BASSIANA,,,,
BEFLUBUTAMID,,,,
BENALAXYL,,,,
BENALAXYL-M,,,,
BENAZOLIN,,,,
BENDIOCARB,,,,
BENFLURALIN,,,,
BENFURACARB,,,,
BENFURESATE,,,,
BENOMYL,,,,
BENOXACOR,,,,
BENSULFURON,,,,
BENSULTAP,,,,
BENTAZONE,,,,
BENTHIAVALICARB,,,,
BENTHIAVALICARB-ISOPROPYL,,,,
BENTONITE,,,,
BENZAMIDE,,,,
BENZOBICYCLON,,,,
BENZOFENAP,,,,
BENZOVINDIFLUPYR,,,,
BENZYLADENINE,,,,
BETA CYFLUTHRIN,BETA-CYFLUTHRIN,BETA-CYIFLUTRIN,BETACYFLUTHRIN,
BETA-CYPERMETHRIN,,,,
BICYCLOPYRONE,,,,
BIFENAZATE,,,,
BIFENOX,,,,
BIFENTHRIN,,,,
BIOLOGICAL-PRODUCT,,,,
BIOSTIMULANT,,,,
BISPIRYBAC-SODIUM,BISPYRIBAC-SODIUM,,,
BISTRIFLURON,,,,
BITERTANOL,,,,
BIXAFEN,,,,
BORDEAUX MIXTURE,,,,
BOSCALID,,,,
BPMC,,,,
BROMACIL,,,,
BROMOBUTIDE,,,,
BROMOXYNIL,,,,
BROMUCONAZOLE,,,,
BUPIRIMATE,,,,
BUPROFEZIN,,,,
BUTACHLOR,,,,
BUTAMIFOS,,,,
C. OXYCHLORIDE,,,,
CADUSAFOS,,,,
CAFENSTROLE,,,,
CALCIUM HYDROGEN CARBONATE,,,,
CALCIUM SULPHATE,,,,
CAPTAN,,,,
CARBARYL,,,,
CARBENDAZIM,,,,
CARBETAMIDE,,,,
CARBOFURAN,,,,
CARBON DIOXIDE,,,,
CARBOSULFAN,,,,
CARBOXIN,,,,
CARFENTRAZONE,,,,
CARFENTRAZONE-ETHYL,,,,
CARPROPAMID,,,,
CARTAP,,,,
CHLOPYRALID,,,,
CHLORANTRANILIPROLE,CLORANTRANILIPROLE,,,
CHLORETHOXYFOS,,,,
CHLORFENAPYR,,,,
CHLORFENVINPHOS,,,,
CHLORFLUAZURON,,,,
CHLORIDAZON,,,,
CHLORIMURON,,,,
CHLORIMURON-ETHYL,,,,
CHLORMEQUAT,,,,
CHLORMEQUAT CHLORIDE,,,,
CHLOROPICRIN,,,,
CHLOROTHALONIL,,,,
CHLOROTOLURON,,,,
CHLORPROPHAM,,,,
CHLORPYRIFOS,CHLORPYRIFOS-ETHYL,,,
CHLORSULFURON,,,,
CHLORTOLURON,,,,
CHROMAFENOZIDE,,,,
CINIDON-ETHYL,,,,
CINOSULFURON,,,,
CITRUS EXTRACT,,,,
CLETHODIM,,,,
CLODINAFOP,,,,
CLODINAFOP-PROPARGYL,,,,
CLOFENTEZINE,,,,
CLOMAZON,CLOMAZONE,,,
CLOMEPROP,,,,
CLOPYRALID,,,,
CLOQUINTOCET-MEXYL,CLOQUINTOCET-METHYL,CLOQUINTOCET,,
CLORANSULAM-METHYL,,,,
CLORFENAPYR,,,,
CLORFLUAZURON,,,,
CLOROTHALONIL,,,,
CLOTHIANIDIN,,,,
CODLEMONE,,,,
COPPER,,,,
COPPER FUNGICIDE,COPPER FUNGICIDES,,,
COPPER OXYCHLORIDE,COPPER-OXYCHLORIDE,,,
COPPER SULPHATE,,,,
COTTONSEED OIL,,,,
CUMYLURON,,,,
CYANAZINE,,,,
CYANOPHOS,,,,
CYANTRANILIPROLE,,,,
CYAZOFAMID,,,,
CYCLANILIDE,,,,
CYCLOPROTHRIN,,,,
CYCLOSULFAMURON,,,,
CYCLOXYDIM,,,,
CYDIA POMONELLA GRANULOSIS VIRUS,,,,
CYENOPYRAFEN,,,,
CYFLUFENAMID,CYFLUFETAMID,,,
CYFLUMETOFEN,,,,
CYFLUTHRIN,,,,
CYHALOFOP,,,,
CYHALOFOP-BUTYL,CYHALOPFOP-BUTYL,,,
CYHEXATIN,,,,
CYMOXANIL,,,,
CYPERMETHRIN,,,,
CYPERMETHRIN CHLORPYRIFOS,,,,
CYPROCONAZOLE,CYOROCONAZOLE,,,
CYPRODINIL,,,,
"CYPRODINIL,FLUDIOXONIL",,,,
CYPROSULFAMIDE,,,,
CYROMAZINE,,,,
CYTOKININS,,,,
DAIMURON,,,,
DAZOMET,,,,
DBEDC,,,,
DELTAMETHRIN,,,,
DESMEDIPHAM,,,,
DIAFENTHIURON,,,,
DIAZINON,,,,
DICAMBA,,,,
DICHLOBENIL,,,,
DICHLORMID,,,,
DICHLOROPROPENE,DICHLORPROP,DICHLORPROP-P,,
DICHLORVOS,,,,
DICHOLORODIISOPROPYL ETHER,,,,
DICLOCYMET,,,,
DICLOFOP,,,,
DICLORAN,,,,
DICLOSULAM,,,,
DICOFOL,,,,
DICROTOPHOS,,,,
DIDECYLDIMETHYL AMMONIUM CHLORIDE,,,,
DIETHOFENCARB,,,,
DIFENOCONAZOLE,DIFECONAZOLE,,,
DIFENZOQUAT,,,,
DIFLUBENZURON,,,,
DIFLUFENICAN,,,,
DIFLUFENZOPYR,,,,
DIGLYPHUS ISAEA,,,,
DIMETHACHLOR,DIMETHACLOR,,,
DIMETHAMETRYN,,,,
DIMETHENAMID,,,,
DIMETHENAMID-P,,,,
DIMETHOATE,,,,
DIMETHOMORPH,DIMETHOMOPRH,,,
DIMETHYL DISULFIDE,,,,
DIMOXYSTROBIN,,,,
DINICONAZOLE,,,,
DINOCAP,,,,
DINOTEFURAN,,,,
DIPOTASSIUM PHOSPHATE,,,,
DIQUAT,,,,
DISULFOTON,,,,
DITHIANON,,,,
DIURON,,,,
DODEMORPH,,,,
DODINE,,,,
EDIFENPHOS,,,,
EMAMECTIN BENZOATE,EMAMECTIN-BENZOATE,,,
ENCARSIA FORMOSA,,,,
ENDOSULFAN,,,,
EPN,,,,
EPOXICONAZOLE,,,,
EPTC,,,,
ERETMOCERUS EREMICUS,,,,
ERWINIA CAROTOVORA,,,,
ESFENVALERATE,,,,
ESPROCARB,,,,
ETHABOXAM,,,,
ETHALFLURALIN,,,,
ETHAMETSULFURON,,,,
ETHAMETSULFURON-METHYL,,,,
ETHEPHON,,,,
ETHION,,,,
ETHIPROLE,,,,
ETHOFUMESATE,,,,
ETHOPROPHOS,,,,
ETHOXYSULFURON,,,,
ETOFENPROX,,,,
ETOXAZOLE,,,,
ETRIDIAZOLE,,,,
EUGENOL,,,,
FAMOXADONE,,,,
FATTY ACID,FATTY ACIDS,,,
FENAMIDONE,,,,
FENAMINOSULFATE,,,,
FENAMIPHOS,,,,
FENARIMOL,,,,
FENAZAQUIN,,,,
FENBUCONAZOLE,,,,
FENBUTATIN OXIDE,,,,
FENHEXAMID,,,,
FENITROTHION,,,,
FENOBUCARB,,,,
FENOXANIL,,,,
FENOXAPROP,,,,
FENOXAPROP-P-ETHYL,,,,
FENOXYCARB,,,,
FENPRODIN,,,,
FENPROPATHRIN,,,,
FENPROPIDIN,,,,
FENPROPIMORPH,,,,
FENPYRAZAMINE,,,,
FENPYROXIMATE,,,,
FENTHION,,,,
FENTRAZAMIDE,,,,
FENVALERATE,,,,
FERIMZONE,,,,
FIPRONIL,,,,
FLAZASULFURON,,,,
FLONICAMID,,,,
FLORANSULFURON,,,,
FLORASULAM,,,,
FLORASULEM 15%,,,,
FLUAZIFOP,,,,
FLUAZINAM,,,,
FLUBENDIAMIDE,,,,
FLUCARBAZONE,,,,
FLUCETOSULFURON,,,,
FLUCYTHRINATE,,,,
FLUDIOXONIL,FLUDIOXONYL,FLUDIOXYNIL,,
FLUFENACET,,,,
FLUFENOXURON,,,,
FLUMETRALIN,,,,
FLUMETSULAM,,,,
FLUMICLORAC-PENTYL,,,,
FLUMIOXAZIN,,,,
FLUMORPH,,,,
FLUOMETURON,,,,
FLUOPICOLIDE,,,,
FLUOPYRAM,,,,
FLUOROCLORIDONE,,,,
FLUOXASTROBIN,,,,
FLUPYRSULFURON,,,,
FLUPYRSULFURON-METHYL,,,,
FLUQUINCONAZOLE,,,,
FLUROCHLORIDONE,,,,
FLUROXYPYR,,,,
FLUROXYPYR-MEPTYL,,,,
FLURTAMONE,,,,
FLUSILAZOLE,,,,
FLUSULFAMIDE,,,,
FLUTHIACET,,,,
FLUTOLANIL,,,,
FLUTRIAFOL,,,,
FLUVALINATE,,,,
FLUXAPYROXAD,FLUXOPYROSAD,,,
FOLIAR FERTILISER,,,,
FOLPET,,,,
FOMESAFEN,,,,
FORAMSULFURON,,,,
FORCHLORFENURON,,,,
FORMETANATE,,,,
FOSETYL ALUMINIUM,FOSETHYL ALUMINUM,FOSETYL-AL,,
FOSETYL,,,,
FOSTHIAZATE,,,,
FUBERIDAZOLE,,,,
FURAMETPYR,,,,
GAMMA-CYHALOTHRIN,,,,
GARLIC EXTRACT,,,,
GENTAMYCIN,,,,
GERANIOL,,,,
GIANT KNOTWEED EXTRACT,,,,
GIBBERELLIC ACID,,,,
GIBBERELLINS,,,,
GLUFOSINATE,,,,
GLYPHOSATE,GLYFOSAAT,,,
GLYPHOSATE ISOPROPYLAMMONIUM,,,,
HALAUXIFEN,,,,
HALOSULFURON,,,,
HALOSULFURON-METHYL,,,,
HALOXYFOP,,,,
HALOXYFOP-P-METHYL,,,,
HEXACONAZOLE,,,,
HEXAZINONE,,,,
HEXYTHIAZOX,,,,
HYDRAMETHYLNON,,,,
HYDROGEN CYANAMIDE,,,,
HYDROXYISOXAZOLE,,,,
HYMEXAZOL,,,,
IMAZALIL,,,,
IMAZAMETHABENZ,,,,
IMAZAMOX,,,,
IMAZAPIC,,,,
IMAZAPYR,,,,
IMAZAQUIN,,,,
IMAZETHAPYR,,,,
IMAZOSULFURON,,,,
IMIBENCONAZOLE,,,,
IMICYAFOS,,,,
IMIDACLOPRID,IMIDACLORID,,,
IMINOCTADINE,,,,
IMZALIL,,,,
INDANOFAN,,,,
INDAZIFLAM,,,,
INDOLE ACETIC ACID,,,,
INDOLE BUTYRIC ACID,,,,
INDOXACARB,,,,
IODOCARB,,,,
IODOSULFURON,,,,
IODOSULFURON-METHYL,,,,
IODOSULFURON-METHYL-SODIUM,,,,
IOXINIL,IOXYNIL,,,
IPCONAZOLE,,,,
IPFENCARBAZONE,,,,
IPROBENFOS,,,,
IPRODIONE,,,,
IPROVALICARB,,,,
IRON,,,,
IRON PHOSPHATE,,,,
ISOCARBOPHOS,,,,
ISOFENPHOS,,,,
ISOPROCARB,,,,
ISOPROTHIOLANE,,,,
ISOPROTURON,,,,
ISOPYRAZAM,,,,
ISOTIANIL,,,,
ISOURON,,,,
ISOXABEN,,,,
ISOXADIFEN,,,,
ISOXADIFEN-ETHYL,,,,
ISOXAFLUTOLE,,,,
ISOXATHION,,,,
KASUGAMYCIN,,,,
KINETIN,,,,
KRESOXIM-METHYL,,,,
L-CYSTEIN,,,,
LACTOFEN,,,,
LAMBDA CYHALOTHRIN,LAMBDA-CYHALOTHRIN,LAMBDACYHALOTHRIN,L-CYHALOTHRIN,LABDA-CYHALOTHRIN
LAMINARIN,,,,
LENACIL,,,,
LEPIMECTIN,,,,
LIME SULPHUR,,,,
LINDANE (GAMMA-HCH),,,,
LINURON,,,,
LUFENURON,,,,
LYCHNIS VISCARIA EXTRACT,,,,
MACHINE OIL,,,,
MAGNESIUM PHOSPHIDE,,,,
MALATHION,,,,
MALEIC HYDRAZIDE,,,,
MANCOZEB,,,,
MANDIPROPAMID,,,,
MANEB,,,,
MATRINE,,,,
MCPA,,,,
MCPA DIMETHYLAMINE,,,,
MCPB,MCPP,,,
MECOPROP,,,,
MECOPROP-P,,,,
MEFENACET,,,,
MEFENOXAM,,,,
MEFENPYR,,,,
MEFENPYR-DIETHYL,,,,
MELALEUCA ALTERNIFOLIA,,,,
MEPANIPYRIM,,,,
MEPIQUAT,,,,
MEPRONIL,,,,
MEPTYLDINOCAP,,,,
MESOSULFURON,MESOSULFURON-M,,,
MESOTRIONE,,,,
METAFLUMIZONE,,,,
METALAXYL,,,,
METALAXYL-M,,,,
METALDEHYDE,,,,
METALLAXIL,,,,
METALLIC COPPER,,,,
METAM,,,,
METAM-SODIUM,,,,
METAMIFOP,,,,
METAMITRON,,,,
METAZACHLOR,,,,
METAZOSULFURON,,,,
METCONAZOLE,,,,
METHABENZTHIAZURON,,,,
METHAMIDOPHOS,,,,
METHIDATHION,,,,
METHIOCARB,,,,
METHIOTRONE,,,,
METHOMYL,,,,
METHOXAM,,,,
METHOXYFENOZIDE,,,,
METHYL ARSONIC ACID,,,,
METHYL BROMIDE,,,,
METHYL OLEATE,,,,
METHYLCYCLOPROPENE,,,,
METIRAM,,,,
METOBROMURON,,,,
METOLACHLOR,,,,
METOMINOSTROBIN,,,,
METOSULAM,,,,
METRAFENONE,,,,
METRIBUZIN,METIBUZIM,,,
METSULFURON,,,,
METSULFURON METHYL,METSULFURON-METHYL,,,
MILBEMECTIN,,,,
MIMOSA EXTRACT,,,,
MINERAL OIL,,,,
MOLINATE,,,,
MONO- AND DIBASIC SODIUM PHOSPHATE,,,,
MONOCROTOPHOS,,,,
MONOPOTASSIUM PHOSPHATE,,,,
MSMA,,,,
MTSPA,,,,
MUSHROOM EXTRACT,,,,
MYCLOBUTANIL,,,,
MYROTHECIUM VERRUCARIA,,,,
N-6 BENZYLADENINE,,,,
N-METHYL PYRROLIDONE,,,,
NAPHTALENE ACETIC ACID,,,,
NAPROPAMIDE,,,,
NEEM OIL EXTRACT,,,,
NEOSEILUS CALIFORNICUS,,,,
NICLOSAMIDE,,,,
NICOSULFURON,,,,
NITENPYRAM,,,,
NONILFENOL,,,,
NOVALURON,,,,
OLIVE EXTRACT,,,,
OMETHOATE,,,,
ORANGE OIL,,,,
ORTHOSULFAMURON,,,,
ORYSASTROBIN,,,,
ORYZALIN,,,,
OXADIARGYL,,,,
OXADIAZON,,,,
OXADIXYL,,,,
OXAMYL,,,,
OXAZICLOMEFONE,,,,
OXINE-COPPER,,,,
OXOLINIC ACID,,,,
OXPOCONAZOLE,,,,
OXYCARBOXIN,,,,
OXYDEMETON-METHYL,,,,
OXYFLUORFEN,OXYFLOURFEN,,,
OXYTETRACYCLINE,,,,
PACLOBUTRAZOL,,,,
PAECILOMYCES LILACINUS,,,,
PARAFFIN OIL,,,,
PARAQUAT,,,,
PCNB,,,,
PEFURAZOATE,,,,
PELARGONIC ACID,,,,
PENCONAZOLE,,,,
PENCYCURON,,,,
PENDIMETHALIN,PENDIMEHTALIN,,,
PENFLUFEN,,,,
PENOXULAM,PENOXSULAM,,,
PENTHIOPYRAD,,,,
PENTOXAZONE,,,,
PERMETHRIN,,,,
PETHOXAMID,,,,
PETROLEUM OIL,,,,
PHENACRIDAN CHLORIDE,,,,
PHENMEDIPHAM,,,,
PHENTHOATE,,,,
PHEROMONES,,,,
PHORATE,,,,
PHOSALONE,,,,
PHOSMET,,,,
PHOSPHAMIDON,,,,
PHOSPHINE,,,,
PHOSPHORIC ACID,PHOSPHONIC ACID,,,
PHOXIM,,,,
PHTHALIDE,,,,
PHYTOSEIULUS PERSIMILIS,,,,
PICLORAM,,,,
PICOLINAFEN,,,,
PICOXYSTROBIN,,,,
PINOXADEN,,,,
PIPERALIN,,,,
PIRIMICARB,,,,
PIRIMIPHOS-METHYL,,,,
PIROXSULAM,,,,
POLYHEDROSIS VIRUS,,,,
POLYOXIN,,,,
POTASSIUM,,,,
POTASSIUM HYDROGEN CARBONATE,,,,
POTASSIUM PHOSPHITE,,,,
POTASSIUM PHOSPHONATE,,,,
PRETILACHLOR,,,,
PRIMISULFURON,,,,
PROBENAZOLE,,,,
PROCHLORAZ,PROCLORAZ,,,
PROCYMIDONE,,,,
PROFENOFOS,PROFENOPHOS,,,
PROFOXYDIM,,,,
PROHEXADIONE,,,,
PROMETON,,,,
PROMETRYN,,,,
PROPAMOCARB,,,,
PROPAMOCARB HCL,PROPAMOCARB-HCL,,,
PROPANIL,,,,
PROPAQUIZAFOP,,,,
PROPARGITE,,,,
PROPETAMPHOS,,,,
PROPICONAZOLE,,,,
PROPINEB,,,,
PROPISOCHLOR,,,,
PROPOXYCARBAZONE,PROPOXICARBAZONE,,,
PROPYLENE GLYCOL MONOLAURATE,,,,
PROPYRISULFURON,,,,
PROPYZAMIDE,,,,
PROQUINAZID,,,,
PROSULFOCARB,,,,
PROSULFURON,,,,
PROTHIOCONAZOLE,,,,
PROTHIOFOS,,,,
PSEUDOMONAS AUREOFACIENS,,,,
PSEUDOMONAS CHLORORAPHIS,,,,
PSEUDOMONAS RHODESIAE,,,,
PSEUDOMONAS SPP,,,,
PTB,,,,
PYDIFLUMETOFEN,,,,
PYMETROZINE,,,,
PYRACLONIL,,,,
PYRACLOSTROBIN,,,,
PYRAFLUFEN-ETHYL,PYRAFLUFEN,,,
PYRASULFOTOLE,,,,
PYRAZOLYNATE,,,,
PYRAZOSULFURON,,,,
PYRAZOXYFEN,,,,
PYRETHRIN,,,,
PYRIBENCARB,,,,
PYRIBENZOXIM,PYRIBENZOZIM,,,
PYRIBUTICARB,,,,
PYRIDABEN,,,,
PYRIDALYL,,,,
PYRIDATE,,,,
PYRIFLUQUINAZON,,,,
PYRIFTALID,,,,
PYRIMETHANIL,,,,
PYRIMICARB,,,,
PYRIMIDIFEN,,,,
PYRIMINOBAC-METHYL,,,,
PYRIMISULFAN,,,,
PYRIOFENONE,,,,
PYRIPROXYFEN,PYRIPROXIFEN,PYRIPYROXYFEN,,
PYRITHIOBAC,,,,
PYROQUILON,,,,
PYROXASULFONE,,,,
PYROXSULAM,,,,
PYTHIUM OLIGANDRUM M1,,,,
QUINALPHOS,,,,
QUINCLORAC,,,,
QUINMERAC,,,,
QUINOCLAMINE,,,,
QUINOXYFEN,,,,
QUINTOZENE,,,,
QUIZALOFOP,,,,
QUIZALOFOP-P,,,,
QUIZALOFOP-P-ETHYL,,,,
QUIZALOFOP-P-TEFURYL,,,,
RAPESEED OIL,,,,
RIMSULFURON,RIMFULFURON,,,
RYANODINE,,,,
S-METALOCHLOR,S-METOLACHLOR,,,
SAFLUFENACIL,,,,
SEDAXANE,,,,
SETHOXYDIM,,,,
SILAFLUOFEN,,,,
SILTHIOPHAM,,,,
SIMAZINE,,,,
SIMECONAZOLE,,,,
SIMETRYN,,,,
SODIUM BICARBONAE,,,,
SODIUM FLUOSILICATE,,,,
SODIUM METABISULFITE,,,,
SODIUM OLEATE,,,,
SOLVITAN FAT ACID ESTER,,,,
SPINETORAM,,,,
SPINOSAD,,,,
SPIRODICLOFEN,,,,
SPIROMESIFEN,,,,
SPIROTETRAMAT,,,,
SPIROXAMINE,,,,
STARCH,,,,
STEINERNEMA FELTIAE,,,,
STEINERNEMA GLASERI,,,,
STREPTOMYCIN,,,,
SULCOTRIONE,,,,
SULFENTRAZONE,,,,
SULFOMETURON-METHYL,SULFOMETURON,,,
SULFOSULFURON,,,,
SULFOXAFLOR,,,,
SULPHATE,,,,
SULPHUR,,,,
TALAROMYCES FLAVUS,,,,
TEA EXTRACT,,,,
TEBUCONAZOLE,TEBUCONAZOL,TEBUCONZAOLE,,
TEBUFENOZIDE,,,,
TEBUFENPYRAD,,,,
TEBUPIRIMFOS,,,,
TEBUTHIURON,,,,
TECLOFTALAM,,,,
TEFLUBENZURON,,,,
TEFLUTHRIN,,,,
TEFURYLTRIONE,,,,
TEMBOTRIONE,,,,
TEPRALOXYDIM,,,,
TERBUFOS,,,,
TERBUTHYLAZINE,TERBUTILAZINE,TERBUTYLAZINE,TERBUTHYLINE,
TERBUTRYN,,,,
TETRACONAZOLE,,,,
TETRADEC-11-ENYL ACETATE,,,,
TETRADIFON,,,,
THENCARBAZONE-METHYL,,,,
THENYLCHLOR,,,,
THIABENDAZOLE,,,,
THIACLOPRID,,,,
THIAMETHOXAM,THIAMETHOXAN,THIAMETOXAM,THIAMEXTHOXAM,TIAMETOXAM
THIDIAZURON,,,,
THIENCARBAZONE,,,,
THIENCARBAZONE METHYL,THIENCARBAZONE-METHYL,THIENCARBAZONE-M,,
THIFENSULFURON-METHYL,THIFENSULFURON,,,
THIFLUZAMIDE,,,,
THIOBENCARB,,,,
THIOCYCLAM,,,,
THIODICARB,,,,
THIOPHANATE,,,,
THIOPHANATE METHYL,THIOPHANATE-M,THIOPHANATE-METHYL,THIOPHANTE-M,
THIOSULTAP,,,,
THIRAM,,,,
THIURAM,,,,
TIADINIL,,,,
TIFENSULFURON,,,,
TOLCLOFOS-METHYL,,,,
TOLFENPYRAD,,,,
TOPRAMEZONE,,,,
TRALKOXYDIM,,,,
TRALOMETHRIN,,,,
TRIADIMEFON,,,,
TRIADIMENOL,,,,
TRIAFAMONE,,,,
TRIALLATE,,,,
TRIASULFURON,,,,
TRIAZOPHOS,,,,
TRIBENURON,,,,
TRIBENURON-METHYL,,,,
TRICHLORFON,,,,
TRICHODERMA,,,,
TRICHODERMA ASPERULLUM,,,,
TRICHODERMA ATROVIRIDE,,,,
TRICHODERMA GAMSII,,,,
TRICHODERMA HARZIANUM,TRICHODERMA HARZIANUM STRAIN IMI 206040,,,
TRICHODERMA KONINGII,,,,
TRICHODERMA POLYSPORUM,TRICHODERMA POLYSPORUM STRAIN IMI 206039,,,
TRICHODERMA SPP,,,,
TRICHOGRAMMA SP.,,,,
TRICLOPYR,,,,
TRICYCLAZOLE,,,,
TRIFLOXYSTROBIN,TRIFLOXISTROBIN,TRIFLOXYTROBIN,,
TRIFLOXYSULFURON,,,,
TRIFLUMIZOLE,,,,
TRIFLUMURON,,,,
TRIFLURALIN,,,,
TRIFLUSULFURON,,,,
TRIFORINE,,,,
TRIFOXYSTROBIN,,,,
TRINEXAPAC-ETHYL,,,,
TRITICONAZOLE,,,,
TRITOSULFURON,,,,
TSIPROSULFAMID,,,,
VALIDAMYCIN,,,,
VALIFENALATE,,,,
VALIPHENAL,,,,
VEGETABLE EXTRACT,,,,
ZEATIN,,,,
ZETA-CYPERMETHRIN,,,,
ZINEB,,,,
ZIRAM,,,,
ZOXAMIDE,,,,
